\relax 
\@writefile{toc}{\contentsline {chapter}{\numberline {10}The SuperNEMO tracker}{173}}
\@writefile{lof}{\addvspace {10\p@ }}
\@writefile{lot}{\addvspace {10\p@ }}
\newlabel{sec:tracker}{{10}{173}}
\citation{Wilkinson1992195}
\@writefile{toc}{\contentsline {section}{\numberline {10.1}The physics of Geiger counters}{174}}
\newlabel{sec:sn-gg}{{10.1}{174}}
\citation{Wilkinson1996516,PhysRev.72.602}
\citation{manu}
\citation{manu}
\citation{geiger-disso,PhysRev.72.602}
\@writefile{lof}{\contentsline {figure}{\numberline {\relax 10.1}{\ignorespaces Sketch of the signal generating process in Geiger counters.}}{175}}
\newlabel{fig:geiger}{{\relax 10.1}{175}}
\citation{geiger-disso}
\citation{PhysRev.50.48}
\citation{Vavra20031}
\@writefile{toc}{\contentsline {section}{\numberline {10.2}The SuperNEMO tracker cells}{176}}
\newlabel{sec:sn-sn-cell}{{10.2}{176}}
\citation{NIST}
\newlabel{}{{\relax 10.2a}{177}}
\newlabel{sub@}{{(a)}{a}}
\newlabel{}{{\relax 10.2b}{177}}
\newlabel{sub@}{{(b)}{b}}
\@writefile{lof}{\contentsline {figure}{\numberline {\relax 10.2}{\ignorespaces Sketch of a SuperNEMO tracker cell.}}{177}}
\newlabel{fig:sn-cell-sketch}{{\relax 10.2}{177}}
\@writefile{lof}{\contentsline {subfigure}{\numberline{(a)}{\ignorespaces {}}}{177}}
\@writefile{lof}{\contentsline {subfigure}{\numberline{(b)}{\ignorespaces {}}}{177}}
\citation{manu-dead-time}
\citation{manu-tracker-signal}
\citation{manu-tracker-signal}
\@writefile{lof}{\contentsline {figure}{\numberline {\relax 10.3}{\ignorespaces Example set of signals from a Geiger discharge in a SuperNEMO tracker cell.}}{179}}
\newlabel{fig:sn-cell-sig}{{\relax 10.3}{179}}
\citation{Maneschg2008448}
\@writefile{toc}{\contentsline {section}{\numberline {10.3}The tracker frame}{180}}
\newlabel{sec:sn-tracker-frame}{{10.3}{180}}
\newlabel{}{{\relax 10.4a}{181}}
\newlabel{sub@}{{(a)}{a}}
\newlabel{}{{\relax 10.4b}{181}}
\newlabel{sub@}{{(b)}{b}}
\@writefile{lof}{\contentsline {figure}{\numberline {\relax 10.4}{\ignorespaces Sketch of a SuperNEMO tracker C-section.}}{181}}
\newlabel{fig:sn-c-section-sketch}{{\relax 10.4}{181}}
\@writefile{lof}{\contentsline {subfigure}{\numberline{(a)}{\ignorespaces {}}}{181}}
\@writefile{lof}{\contentsline {subfigure}{\numberline{(b)}{\ignorespaces {}}}{181}}
\citation{manu-wire-test}
\@writefile{toc}{\contentsline {section}{\numberline {10.4}Construction of the tracker}{182}}
\newlabel{sec:sn-tracker-const}{{10.4}{182}}
\citation{perry-sn-hv}
\@writefile{lof}{\contentsline {figure}{\numberline {\relax 10.5}{\ignorespaces Photograph of the wiring robot in the University of Manchester clean-room.}}{183}}
\newlabel{fig:sn-robot}{{\relax 10.5}{183}}
\@writefile{toc}{\contentsline {section}{\numberline {10.5}Tracker electronics and DAQ}{183}}
\newlabel{sec:sn-tracker-elec}{{10.5}{183}}
\@writefile{lof}{\contentsline {figure}{\numberline {\relax 10.6}{\ignorespaces Photograph of the C0 frame at MSSL, partially populated with cells.}}{184}}
\newlabel{fig:sn-cell-insertion}{{\relax 10.6}{184}}
\citation{manu-derived-sig}
\citation{manu-derived-sig}
\@writefile{lof}{\contentsline {figure}{\numberline {\relax 10.7}{\ignorespaces Derivative of the anode signal.}}{185}}
\newlabel{fig:sn-der-an}{{\relax 10.7}{185}}
\@setckpt{chapters/supernemo-tracker/chapter.supernemo-tracker}{
\setcounter{page}{186}
\setcounter{equation}{2}
\setcounter{enumi}{0}
\setcounter{enumii}{0}
\setcounter{enumiii}{0}
\setcounter{enumiv}{0}
\setcounter{footnote}{0}
\setcounter{mpfootnote}{0}
\setcounter{part}{2}
\setcounter{chapter}{10}
\setcounter{section}{5}
\setcounter{subsection}{0}
\setcounter{subsubsection}{0}
\setcounter{paragraph}{0}
\setcounter{subparagraph}{0}
\setcounter{figure}{7}
\setcounter{table}{0}
\setcounter{cp@cntr}{0}
\setcounter{parentequation}{0}
\setcounter{r@tfl@t}{0}
\setcounter{ContinuedFloat}{0}
\setcounter{fmfgraph}{1}
\setcounter{KVtest}{1}
\setcounter{subfigure}{0}
\setcounter{subfigure@save}{2}
\setcounter{lofdepth}{1}
\setcounter{subtable}{0}
\setcounter{subtable@save}{0}
\setcounter{lotdepth}{2}
\setcounter{pp@next@reset}{0}
\setcounter{iterlist}{0}
}
