\relax 
\@writefile{toc}{\contentsline {chapter}{\numberline {7}Measurement of backgrounds in the \Ca  {48} source}{109}}
\@writefile{lof}{\addvspace {10\p@ }}
\@writefile{lot}{\addvspace {10\p@ }}
\newlabel{sec:bkgd_meas}{{7}{109}}
\@writefile{toc}{\contentsline {section}{\numberline {7.1}Background production processes}{109}}
\@writefile{toc}{\contentsline {subsection}{\numberline {7.1.1}Background classification}{110}}
\@writefile{toc}{\contentsline {subsubsection}{Internal backgrounds}{110}}
\newlabel{fig:IntMoller}{{\relax 7.1a}{111}}
\newlabel{sub@fig:IntMoller}{{(a)}{a}}
\newlabel{fig:IntConversion}{{\relax 7.1b}{111}}
\newlabel{sub@fig:IntConversion}{{(b)}{b}}
\newlabel{fig:IntCompton}{{\relax 7.1c}{111}}
\newlabel{sub@fig:IntCompton}{{(c)}{c}}
\@writefile{lof}{\contentsline {figure}{\numberline {\relax 7.1}{\ignorespaces Internal background production processes.}}{111}}
\newlabel{fig:nemo3-backgrounds:IntBGs}{{\relax 7.1}{111}}
\@writefile{lof}{\contentsline {subfigure}{\numberline{(a)}{\ignorespaces {$\beta $-decay and M{\o }ller Scattering}}}{111}}
\@writefile{lof}{\contentsline {subfigure}{\numberline{(b)}{\ignorespaces {$\beta $-decay and Internal Conversion}}}{111}}
\@writefile{lof}{\contentsline {subfigure}{\numberline{(c)}{\ignorespaces {$\beta $-decay and Compton Scattering}}}{111}}
\@writefile{toc}{\contentsline {subsubsection}{External backgrounds}{112}}
\@writefile{toc}{\contentsline {subsubsection}{Radon backgrounds}{112}}
\@writefile{toc}{\contentsline {section}{\numberline {7.2}Sources of background}{112}}
\newlabel{fig:PairProd}{{\relax 7.2a}{113}}
\newlabel{sub@fig:PairProd}{{(a)}{a}}
\newlabel{fig:CompMoll}{{\relax 7.2b}{113}}
\newlabel{sub@fig:CompMoll}{{(b)}{b}}
\newlabel{fig:CompComp}{{\relax 7.2c}{113}}
\newlabel{sub@fig:CompComp}{{(c)}{c}}
\@writefile{lof}{\contentsline {figure}{\numberline {\relax 7.2}{\ignorespaces External background production processes.}}{113}}
\newlabel{fig:nemo3-backgrounds:ExtBGs}{{\relax 7.2}{113}}
\@writefile{lof}{\contentsline {subfigure}{\numberline{(a)}{\ignorespaces {Pair Production}}}{113}}
\@writefile{lof}{\contentsline {subfigure}{\numberline{(b)}{\ignorespaces {Compton + M{\o }ller Scattering}}}{113}}
\@writefile{lof}{\contentsline {subfigure}{\numberline{(c)}{\ignorespaces {Double Compton Scattering}}}{113}}
\citation{NNDC}
\@writefile{toc}{\contentsline {subsection}{\numberline {7.2.1}Decay chains}{114}}
\@writefile{lof}{\contentsline {figure}{\numberline {\relax 7.3}{\ignorespaces Thorium decay chain.}}{115}}
\newlabel{fig:ThDecayChain}{{\relax 7.3}{115}}
\@writefile{lof}{\contentsline {figure}{\numberline {\relax 7.4}{\ignorespaces Uranium decay chain.}}{116}}
\newlabel{fig:UDecayChain}{{\relax 7.4}{116}}
\@writefile{toc}{\contentsline {subsection}{\numberline {7.2.2}\Rn  {222}}{117}}
\newlabel{sec:radon}{{7.2.2}{117}}
\citation{Argyriades:2009vq}
\citation{Argyriades:2009vq}
\@writefile{lof}{\contentsline {figure}{\numberline {\relax 7.5}{\ignorespaces Radon level in the NEMO-3 detector.}}{118}}
\newlabel{fig:RadonLevel}{{\relax 7.5}{118}}
\@writefile{toc}{\contentsline {subsection}{\numberline {7.2.3}Other natural background sources}{119}}
\@writefile{toc}{\contentsline {subsection}{\numberline {7.2.4}Artificial contaminants in source foil}{119}}
\citation{sophieNd150}
\@writefile{toc}{\contentsline {subsubsection}{\Sr  {90} in the \Ca  {48} source}{120}}
\@writefile{toc}{\contentsline {subsection}{\numberline {7.2.5}\2nu   as a background to \0nu  }{120}}
\citation{Argyriades:2009vq}
\@writefile{lof}{\contentsline {figure}{\numberline {\relax 7.6}{\ignorespaces Exponential decay of \Sr  {90}/\Y  {90} in the \Ca  {48} source.}}{121}}
\newlabel{fig:Y90_hl}{{\relax 7.6}{121}}
\@writefile{toc}{\contentsline {subsection}{\numberline {7.2.6}Leakage}{121}}
\@writefile{toc}{\contentsline {section}{\numberline {7.3}NEMO-3 background model}{121}}
\newlabel{sec:ext_model}{{7.3}{121}}
\citation{Argyriades:2009vq}
\citation{Argyriades:2009vq}
\@writefile{lot}{\contentsline {table}{\numberline {\relax 7.1}{\ignorespaces NEMO-3 external background model.}}{122}}
\newlabel{table:external_model}{{\relax 7.1}{122}}
\citation{piaHPGe}
\citation{piaHPGe}
\@writefile{toc}{\contentsline {section}{\numberline {7.4}HPGe measurements of internal backgrounds}{123}}
\newlabel{sec:HPGe_meas}{{7.4}{123}}
\@writefile{lot}{\contentsline {table}{\numberline {\relax 7.2}{\ignorespaces HPGe measurement of internal backgrounds in the \Ca  {48} source.}}{123}}
\newlabel{table:HPGe_meas}{{\relax 7.2}{123}}
\@writefile{toc}{\contentsline {section}{\numberline {7.5}Background fitting procedure}{124}}
\newlabel{sec:fitting_proc}{{7.5}{124}}
\@writefile{lot}{\contentsline {table}{\numberline {\relax 7.3}{\ignorespaces Analysis channels used in the background measurement.}}{124}}
\newlabel{table:channels}{{\relax 7.3}{124}}
\citation{Argyriades:2009vq}
\citation{Argyriades:2009vq}
\@writefile{lot}{\contentsline {table}{\numberline {\relax 7.4}{\ignorespaces Overview of the parameters used in the global fit.}}{125}}
\newlabel{table:pars}{{\relax 7.4}{125}}
\citation{Arnold:2011gq}
\citation{motty}
\@writefile{toc}{\contentsline {section}{\numberline {7.6}General event selection}{126}}
\newlabel{sec:gen_selection}{{7.6}{126}}
\@writefile{toc}{\contentsline {subsection}{\numberline {7.6.1}Hot runs}{126}}
\newlabel{sec:hotRuns}{{7.6.1}{126}}
\@writefile{toc}{\contentsline {subsection}{\numberline {7.6.2}Energy threshold}{126}}
\newlabel{sec:genCriteria}{{7.6.2}{126}}
\newlabel{fig:gammaCaloOcc}{{\relax 7.7a}{127}}
\newlabel{sub@fig:gammaCaloOcc}{{(a)}{a}}
\newlabel{fig:hotRuns}{{\relax 7.7b}{127}}
\newlabel{sub@fig:hotRuns}{{(b)}{b}}
\@writefile{lof}{\contentsline {figure}{\numberline {\relax 7.7}{\ignorespaces Abnormal calorimeter activity leading to the exclusion of runs 8779 -- 8786.}}{127}}
\@writefile{lof}{\contentsline {subfigure}{\numberline{(a)}{\ignorespaces {}}}{127}}
\@writefile{lof}{\contentsline {subfigure}{\numberline{(b)}{\ignorespaces {Event rate for events where one $\gamma $ hits the calorimeter hot spot in sectors 9 and 10.}}}{127}}
\@writefile{lof}{\contentsline {figure}{\numberline {\relax 7.8}{\ignorespaces Distributions of total energy in 1eN$\gamma $ and 1e1$\gamma $ (internal) events for three energy thresholds.}}{128}}
\newlabel{fig:thr}{{\relax 7.8}{128}}
\@writefile{lof}{\contentsline {subfigure}{\numberline{(a)}{\ignorespaces {1eN$\gamma $ 200\keV threshold}}}{128}}
\@writefile{lof}{\contentsline {subfigure}{\numberline{(b)}{\ignorespaces {1e1$\gamma $ (internal) 200\keV threshold}}}{128}}
\@writefile{lof}{\contentsline {subfigure}{\numberline{(c)}{\ignorespaces {1eN$\gamma $ 300\keV threshold}}}{128}}
\@writefile{lof}{\contentsline {subfigure}{\numberline{(d)}{\ignorespaces {1e1$\gamma $ (internal) 300\keV threshold}}}{128}}
\@writefile{lof}{\contentsline {subfigure}{\numberline{(e)}{\ignorespaces {1eN$\gamma $ 400\keV threshold}}}{128}}
\@writefile{lof}{\contentsline {subfigure}{\numberline{(f)}{\ignorespaces {1e1$\gamma $ (internal) 400\keV threshold}}}{128}}
\@writefile{toc}{\contentsline {section}{\numberline {7.7}Background measurement channels}{129}}
\@writefile{toc}{\contentsline {subsection}{\numberline {7.7.1}1eN$\gamma $}{129}}
\@writefile{lof}{\contentsline {figure}{\numberline {\relax 7.9}{\ignorespaces Electron energy distribution in 1eN$\gamma $ events.}}{130}}
\newlabel{fig:1eNg_Plots}{{\relax 7.9}{130}}
\@writefile{lof}{\contentsline {subfigure}{\numberline{(a)}{\ignorespaces {1eN$\gamma $ Phase 1}}}{130}}
\@writefile{lof}{\contentsline {subfigure}{\numberline{(b)}{\ignorespaces {1eN$\gamma $ Phase 2}}}{130}}
\@writefile{toc}{\contentsline {subsection}{\numberline {7.7.2}1e1$\gamma $ (internal)}{130}}
\@writefile{lof}{\contentsline {figure}{\numberline {\relax 7.10}{\ignorespaces Distribution of the cosine of the opening angle between the electron and the $\gamma $ in 1e1$\gamma $ (internal) events.}}{131}}
\newlabel{fig:1e1g_int_angle}{{\relax 7.10}{131}}
\@writefile{toc}{\contentsline {subsection}{\numberline {7.7.3}1e2$\gamma $}{131}}
\@writefile{lof}{\contentsline {figure}{\numberline {\relax 7.11}{\ignorespaces Distribution of the summed energy of the electron and the $\gamma $ in 1e1$\gamma $ (internal) events.}}{132}}
\newlabel{fig:1e1g_int_Plots}{{\relax 7.11}{132}}
\@writefile{lof}{\contentsline {subfigure}{\numberline{(a)}{\ignorespaces {1e1$\gamma $ (internal) Phase 1}}}{132}}
\@writefile{lof}{\contentsline {subfigure}{\numberline{(b)}{\ignorespaces {1e1$\gamma $ (internal) Phase 2}}}{132}}
\@writefile{lof}{\contentsline {figure}{\numberline {\relax 7.12}{\ignorespaces Distribution of the summed energy of the electron and the two $\gamma $'s in 1e2$\gamma $ events.}}{132}}
\newlabel{fig:1e2g_int_Plots}{{\relax 7.12}{132}}
\@writefile{lof}{\contentsline {subfigure}{\numberline{(a)}{\ignorespaces {1e2$\gamma $ Phase 1}}}{132}}
\@writefile{lof}{\contentsline {subfigure}{\numberline{(b)}{\ignorespaces {1e2$\gamma $ Phase 2}}}{132}}
\@writefile{toc}{\contentsline {subsection}{\numberline {7.7.4}1e1$\alpha $}{133}}
\newlabel{sec:back_1e1a_chan}{{7.7.4}{133}}
\@writefile{toc}{\contentsline {subsection}{\numberline {7.7.5}External background measurement channels}{133}}
\@writefile{toc}{\contentsline {subsubsection}{1e1$\gamma $ (external)}{133}}
\@writefile{lof}{\contentsline {figure}{\numberline {\relax 7.13}{\ignorespaces Distribution of the length of the delayed $\alpha $ track in 1e1$\alpha $ events.}}{134}}
\newlabel{fig:1e1a_Plots}{{\relax 7.13}{134}}
\@writefile{lof}{\contentsline {subfigure}{\numberline{(a)}{\ignorespaces {1e1$\alpha $ Phase 1}}}{134}}
\@writefile{lof}{\contentsline {subfigure}{\numberline{(b)}{\ignorespaces {1e1$\alpha $ Phase 2}}}{134}}
\@writefile{lof}{\contentsline {figure}{\numberline {\relax 7.14}{\ignorespaces Distribution of the summed energy of the electron and the $\gamma $ in 1e1$\gamma $ (external) events.}}{134}}
\newlabel{fig:1e1g_ext_Plots}{{\relax 7.14}{134}}
\@writefile{lof}{\contentsline {subfigure}{\numberline{(a)}{\ignorespaces {1e1$\gamma $ (external) Phase 1}}}{134}}
\@writefile{lof}{\contentsline {subfigure}{\numberline{(b)}{\ignorespaces {1e1$\gamma $ (external) Phase 2}}}{134}}
\@writefile{toc}{\contentsline {subsubsection}{Crossing electron}{135}}
\@writefile{lof}{\contentsline {figure}{\numberline {\relax 7.15}{\ignorespaces Summed calorimeter energy distribution in crossing electron events.}}{135}}
\newlabel{fig:xe_Plots}{{\relax 7.15}{135}}
\@writefile{lof}{\contentsline {subfigure}{\numberline{(a)}{\ignorespaces {Crossing electron Phase 1}}}{135}}
\@writefile{lof}{\contentsline {subfigure}{\numberline{(b)}{\ignorespaces {Crossing electron Phase 2}}}{135}}
\@writefile{toc}{\contentsline {section}{\numberline {7.8}Background measurement results}{135}}
\citation{piaHPGe}
\citation{piaHPGe}
\@writefile{toc}{\contentsline {subsubsection}{Internal backgrounds}{136}}
\@writefile{lot}{\contentsline {table}{\numberline {\relax 7.5}{\ignorespaces Results of internal background measurement.}}{136}}
\newlabel{table:int_meas}{{\relax 7.5}{136}}
\@writefile{lof}{\contentsline {figure}{\numberline {\relax 7.16}{\ignorespaces Comparison between measured internal background activities and HPGe measurements.}}{136}}
\newlabel{fig:int_gausConst}{{\relax 7.16}{136}}
\citation{Argyriades:2009vq}
\citation{Argyriades:2009vq}
\@writefile{toc}{\contentsline {subsubsection}{External backgrounds}{137}}
\@writefile{lot}{\contentsline {table}{\numberline {\relax 7.6}{\ignorespaces Results of external background measurement.}}{137}}
\newlabel{table:ext_meas}{{\relax 7.6}{137}}
\@writefile{toc}{\contentsline {subsubsection}{Radon backgrounds}{138}}
\@writefile{lot}{\contentsline {table}{\numberline {\relax 7.7}{\ignorespaces Results of radon background measurement.}}{138}}
\newlabel{table:rdn_meas}{{\relax 7.7}{138}}
\@setckpt{chapters/nemo-3-backgrounds/chapter.nemo-3-backgrounds}{
\setcounter{page}{139}
\setcounter{equation}{0}
\setcounter{enumi}{0}
\setcounter{enumii}{0}
\setcounter{enumiii}{0}
\setcounter{enumiv}{0}
\setcounter{footnote}{3}
\setcounter{mpfootnote}{0}
\setcounter{part}{1}
\setcounter{chapter}{7}
\setcounter{section}{8}
\setcounter{subsection}{0}
\setcounter{subsubsection}{0}
\setcounter{paragraph}{0}
\setcounter{subparagraph}{0}
\setcounter{figure}{16}
\setcounter{table}{7}
\setcounter{cp@cntr}{0}
\setcounter{parentequation}{0}
\setcounter{r@tfl@t}{0}
\setcounter{ContinuedFloat}{0}
\setcounter{fmfgraph}{1}
\setcounter{KVtest}{1}
\setcounter{subfigure}{0}
\setcounter{subfigure@save}{2}
\setcounter{lofdepth}{1}
\setcounter{subtable}{0}
\setcounter{subtable@save}{0}
\setcounter{lotdepth}{2}
\setcounter{pp@next@reset}{0}
\setcounter{iterlist}{0}
}
