\relax 
\@writefile{toc}{\contentsline {chapter}{\numberline {3}Double-$\beta $ decay}{47}}
\@writefile{lof}{\addvspace {10\p@ }}
\@writefile{lot}{\addvspace {10\p@ }}
\newlabel{sec:dbd}{{3}{47}}
\@writefile{toc}{\contentsline {section}{\numberline {3.1}$\beta $ decay}{47}}
\newlabel{sec:beta-decay}{{3.1}{47}}
\citation{Weizscker:1935zz}
\newlabel{eq:betaplus}{{\relax 3.2}{48}}
\@writefile{toc}{\contentsline {subsection}{\numberline {3.1.1}The semi-empirical mass formula}{48}}
\newlabel{eq:semf}{{\relax 3.4}{48}}
\citation{motty}
\citation{motty}
\newlabel{eq:binding}{{\relax 3.5}{49}}
\@writefile{lof}{\contentsline {figure}{\numberline {\relax 3.1}{\ignorespaces Masses of even $A$ nuclei, as described by the SEMF.}}{49}}
\newlabel{fig:semf-curves}{{\relax 3.1}{49}}
\citation{GoeppertMayer:1935qp}
\@writefile{toc}{\contentsline {section}{\numberline {3.2}Two-neutrino double-$\beta $ decay}{50}}
\newlabel{sec:twonu}{{3.2}{50}}
\@writefile{lof}{\contentsline {figure}{\numberline {\relax 3.2}{\ignorespaces Feynman diagram for the two-neutrino double-$\beta $ decay.}}{50}}
\newlabel{fig:2nu-feyn}{{\relax 3.2}{50}}
\citation{doi:10.1146/annurev-nucl-102711-094904}
\citation{post_erratum}
\citation{doi:10.1146/annurev-nucl-102711-094904}
\citation{Rodejohann:2012xd,supernemoPheno}
\citation{SchechterValle}
\citation{Rodejohann:2012xd}
\citation{SchechterValle}
\citation{SchechterValle}
\citation{Rodejohann:2012xd,Bamert199525}
\@writefile{toc}{\contentsline {section}{\numberline {3.3}Neutrinoless double-$\beta $ decay}{52}}
\newlabel{sec:0nu}{{3.3}{52}}
\@writefile{lof}{\contentsline {figure}{\numberline {\relax 3.3}{\ignorespaces Majorana mass term due to \0nu  .}}{52}}
\newlabel{fig:black-box}{{\relax 3.3}{52}}
\citation{doi:10.1146/annurev-nucl-102711-094904}
\citation{0034-4885-75-10-106301}
\@writefile{toc}{\contentsline {subsection}{\numberline {3.3.1}Mass mechanism}{53}}
\@writefile{lof}{\contentsline {figure}{\numberline {\relax 3.4}{\ignorespaces Feynman diagram for the mass mechanism \0nu  .}}{53}}
\newlabel{fig:feyn-mass-mech}{{\relax 3.4}{53}}
\citation{RevModPhys.80.481}
\citation{RevModPhys.80.481}
\citation{Nishino:2012ipa}
\citation{Rodejohann:2012xd}
\citation{Barbier:2004ez}
\@writefile{lof}{\contentsline {figure}{\numberline {\relax 3.5}{\ignorespaces Summed energy spectrum of double-$\beta $ decay.}}{54}}
\newlabel{fig:bb-spectra}{{\relax 3.5}{54}}
\@writefile{toc}{\contentsline {subsection}{\numberline {3.3.2}${\mathchoice {{\setbox \z@ \hbox {$\mathsurround \z@ \displaystyle R$}\setbox \tw@ \hbox {$\mathsurround \z@ \displaystyle /$}\dimen 4\wd \z@ \dimen@ \ht \tw@ \advance \dimen@ -\dp \tw@ \advance \dimen@ -\ht \z@ \advance \dimen@ \dp \z@ \divide \dimen@ \tw@ \advance \dimen@ -0\ht \tw@ \advance \dimen@ -0\dp \tw@ \dimen@ii 0\wd \z@ \raise -\dimen@ \hbox to\dimen 4{\hss \kern \dimen@ii \box \tw@ \kern -\dimen@ii \hss }\hbox to\z@ {\hss \hbox to\dimen 4{\hss \box \z@ \hss }}}}{{\setbox \z@ \hbox {$\mathsurround \z@ \textstyle R$}\setbox \tw@ \hbox {$\mathsurround \z@ \textstyle /$}\dimen 4\wd \z@ \dimen@ \ht \tw@ \advance \dimen@ -\dp \tw@ \advance \dimen@ -\ht \z@ \advance \dimen@ \dp \z@ \divide \dimen@ \tw@ \advance \dimen@ -0\ht \tw@ \advance \dimen@ -0\dp \tw@ \dimen@ii 0\wd \z@ \raise -\dimen@ \hbox to\dimen 4{\hss \kern \dimen@ii \box \tw@ \kern -\dimen@ii \hss }\hbox to\z@ {\hss \hbox to\dimen 4{\hss \box \z@ \hss }}}}{{\setbox \z@ \hbox {$\mathsurround \z@ \scriptstyle R$}\setbox \tw@ \hbox {$\mathsurround \z@ \scriptstyle /$}\dimen 4\wd \z@ \dimen@ \ht \tw@ \advance \dimen@ -\dp \tw@ \advance \dimen@ -\ht \z@ \advance \dimen@ \dp \z@ \divide \dimen@ \tw@ \advance \dimen@ -0\ht \tw@ \advance \dimen@ -0\dp \tw@ \dimen@ii 0\wd \z@ \raise -\dimen@ \hbox to\dimen 4{\hss \kern \dimen@ii \box \tw@ \kern -\dimen@ii \hss }\hbox to\z@ {\hss \hbox to\dimen 4{\hss \box \z@ \hss }}}}{{\setbox \z@ \hbox {$\mathsurround \z@ \scriptscriptstyle R$}\setbox \tw@ \hbox {$\mathsurround \z@ \scriptscriptstyle /$}\dimen 4\wd \z@ \dimen@ \ht \tw@ \advance \dimen@ -\dp \tw@ \advance \dimen@ -\ht \z@ \advance \dimen@ \dp \z@ \divide \dimen@ \tw@ \advance \dimen@ -0\ht \tw@ \advance \dimen@ -0\dp \tw@ \dimen@ii 0\wd \z@ \raise -\dimen@ \hbox to\dimen 4{\hss \kern \dimen@ii \box \tw@ \kern -\dimen@ii \hss }\hbox to\z@ {\hss \hbox to\dimen 4{\hss \box \z@ \hss }}}}}_p$ supersymmetry}{54}}
\citation{Rodejohann:2012xd}
\@writefile{toc}{\contentsline {subsection}{\numberline {3.3.3}Right handed currents}{55}}
\@writefile{lof}{\contentsline {figure}{\numberline {\relax 3.6}{\ignorespaces Feynman diagram for the $\mathinner {\delimiter "426830A {\lambda }\delimiter "526930B }$ mode of \0nu   arising from left-right symmetric models.}}{55}}
\newlabel{fig:feyn-0nu-rhc-lambda}{{\relax 3.6}{55}}
\citation{Bamert199525,Rodejohann:2012xd}
\@writefile{toc}{\contentsline {subsection}{\numberline {3.3.4}Majoron emission}{56}}
\@writefile{toc}{\contentsline {section}{\numberline {3.4}Nuclear matrix elements}{56}}
\newlabel{sec:nme}{{3.4}{56}}
\citation{0034-4885-75-10-106301}
\citation{post_erratum}
\citation{0034-4885-75-10-106301}
\citation{PhysRevC.21.1568}
\citation{motty}
\citation{0034-4885-75-10-106301}
\citation{motty}
\citation{0034-4885-75-10-106301}
\citation{0034-4885-75-10-106301}
\citation{0034-4885-75-10-106301}
\@writefile{toc}{\contentsline {subsection}{\numberline {3.4.1}Comparison of calculations}{58}}
\@writefile{lof}{\contentsline {figure}{\numberline {\relax 3.7}{\ignorespaces Comparison between the nuclear matrix elements for 11 isotopes calculated in five different frameworks.}}{59}}
\newlabel{fig:nmes}{{\relax 3.7}{59}}
\@writefile{lof}{\contentsline {figure}{\numberline {\relax 3.8}{\ignorespaces Comparison between the \0nu   half-lives of 11 isotopes assuming an effective Majorana mass of $\mathinner {\delimiter "426830A {m_{\beta \beta }}\delimiter "526930B }=50$\meV  .}}{59}}
\newlabel{fig:hl-50mev}{{\relax 3.8}{59}}
\@setckpt{chapters/double-beta-decay/chapter.double-beta-decay}{
\setcounter{page}{60}
\setcounter{equation}{16}
\setcounter{enumi}{0}
\setcounter{enumii}{0}
\setcounter{enumiii}{0}
\setcounter{enumiv}{0}
\setcounter{footnote}{0}
\setcounter{mpfootnote}{0}
\setcounter{part}{0}
\setcounter{chapter}{3}
\setcounter{section}{4}
\setcounter{subsection}{1}
\setcounter{subsubsection}{0}
\setcounter{paragraph}{0}
\setcounter{subparagraph}{0}
\setcounter{figure}{8}
\setcounter{table}{0}
\setcounter{cp@cntr}{0}
\setcounter{parentequation}{0}
\setcounter{r@tfl@t}{0}
\setcounter{ContinuedFloat}{0}
\setcounter{fmfgraph}{1}
\setcounter{KVtest}{1}
\setcounter{subfigure}{0}
\setcounter{subfigure@save}{4}
\setcounter{lofdepth}{1}
\setcounter{subtable}{0}
\setcounter{subtable@save}{0}
\setcounter{lotdepth}{2}
\setcounter{pp@next@reset}{0}
\setcounter{iterlist}{0}
}
