\relax 
\citation{Ponkratenko:2000um}
\citation{Brun:1987ma}
\@writefile{toc}{\contentsline {chapter}{\numberline {6}General analysis techniques}{93}}
\@writefile{lof}{\addvspace {10\p@ }}
\@writefile{lot}{\addvspace {10\p@ }}
\newlabel{sec:analysis-tech}{{6}{93}}
\@writefile{toc}{\contentsline {section}{\numberline {6.1}Monte Carlo simulation}{93}}
\@writefile{toc}{\contentsline {section}{\numberline {6.2}Event reconstruction}{94}}
\@writefile{toc}{\contentsline {section}{\numberline {6.3}Particle identification}{95}}
\@writefile{toc}{\contentsline {subsection}{\numberline {6.3.1}Electrons}{95}}
\newlabel{sec:pid_e}{{6.3.1}{95}}
\@writefile{toc}{\contentsline {subsection}{\numberline {6.3.2}Photons}{95}}
\@writefile{lof}{\contentsline {figure}{\numberline {\relax 6.1}{\ignorespaces Example of a two-electron event.}}{96}}
\newlabel{fig:ex_2e}{{\relax 6.1}{96}}
\@writefile{toc}{\contentsline {subsection}{\numberline {6.3.3}Alpha emission from \Bi  {214} - \Po  {214} decays}{96}}
\@writefile{lof}{\contentsline {figure}{\numberline {\relax 6.2}{\ignorespaces Example of an event with a delayed $\alpha $ track.}}{97}}
\newlabel{fig:ex_BiPo}{{\relax 6.2}{97}}
\@writefile{toc}{\contentsline {section}{\numberline {6.4}Time of flight}{97}}
\newlabel{sec:tof-def}{{6.4}{97}}
\newlabel{fig:ex_xe}{{\relax 6.3a}{98}}
\newlabel{sub@fig:ex_xe}{{(a)}{a}}
\newlabel{fig:ex_1e1g_ext}{{\relax 6.3b}{98}}
\newlabel{sub@fig:ex_1e1g_ext}{{(b)}{b}}
\@writefile{lof}{\contentsline {figure}{\numberline {\relax 6.3}{\ignorespaces Example of events with external origin.}}{98}}
\@writefile{lof}{\contentsline {subfigure}{\numberline{(a)}{\ignorespaces {Crossing electron}}}{98}}
\@writefile{lof}{\contentsline {subfigure}{\numberline{(b)}{\ignorespaces {External electron and $\gamma $}}}{98}}
\@writefile{toc}{\contentsline {subsection}{\numberline {6.4.1}Internal hypothesis}{98}}
\citation{TOF_note}
\@writefile{toc}{\contentsline {subsubsection}{Electrons}{99}}
\newlabel{eq:e_beta}{{\relax 6.4}{99}}
\@writefile{toc}{\contentsline {subsubsection}{$\gamma $'s}{99}}
\@writefile{toc}{\contentsline {subsection}{\numberline {6.4.2}External hypothesis}{100}}
\newlabel{fig:2e_intProb}{{\relax 6.4a}{101}}
\newlabel{sub@fig:2e_intProb}{{(a)}{a}}
\newlabel{fig:1e1g_intProb}{{\relax 6.4b}{101}}
\newlabel{sub@fig:1e1g_intProb}{{(b)}{b}}
\@writefile{lof}{\contentsline {figure}{\numberline {\relax 6.4}{\ignorespaces Distributions of p-values for the internal time of flight hypothesis.}}{101}}
\@writefile{lof}{\contentsline {subfigure}{\numberline{(a)}{\ignorespaces {Two-electron}}}{101}}
\@writefile{lof}{\contentsline {subfigure}{\numberline{(b)}{\ignorespaces {One electron and one $\gamma $}}}{101}}
\@writefile{toc}{\contentsline {subsubsection}{Crossing electron}{101}}
\@writefile{toc}{\contentsline {subsubsection}{External electron and $\gamma $}{102}}
\@writefile{toc}{\contentsline {section}{\numberline {6.5}Statistical analysis}{102}}
\newlabel{fig:xe_extProb}{{\relax 6.5a}{103}}
\newlabel{sub@fig:xe_extProb}{{(a)}{a}}
\newlabel{fig:1e1g_extProb}{{\relax 6.5b}{103}}
\newlabel{sub@fig:1e1g_extProb}{{(b)}{b}}
\@writefile{lof}{\contentsline {figure}{\numberline {\relax 6.5}{\ignorespaces Distributions of p-values for the external time of flight hypothesis.}}{103}}
\newlabel{fig:extProb_dists}{{\relax 6.5}{103}}
\@writefile{lof}{\contentsline {subfigure}{\numberline{(a)}{\ignorespaces {Crossing electron}}}{103}}
\@writefile{lof}{\contentsline {subfigure}{\numberline{(b)}{\ignorespaces {One electron and one $\gamma $}}}{103}}
\@writefile{toc}{\contentsline {subsection}{\numberline {6.5.1}Fitting MC predictions to data}{103}}
\newlabel{sec:ana_fit}{{6.5.1}{103}}
\citation{Minuit}
\citation{ROOT}
\citation{GlenCowan}
\newlabel{eq:likelihood}{{\relax 6.14}{104}}
\citation{Zech1989608,0954-3899-28-10-313}
\citation{wilks1938}
\citation{Cowan:2013pha}
\citation{Cowan:2013pha}
\@writefile{toc}{\contentsline {subsection}{\numberline {6.5.2}Limit setting}{105}}
\newlabel{sec:ana_cls}{{6.5.2}{105}}
\newlabel{eq:NLLR}{{\relax 6.18}{105}}
\citation{Collie}
\@writefile{lof}{\contentsline {figure}{\numberline {\relax 6.6}{\ignorespaces Example of NLLR distributions.}}{106}}
\newlabel{fig:NLLR}{{\relax 6.6}{106}}
\@writefile{toc}{\contentsline {section}{\numberline {6.6}Half-life calculation}{107}}
\newlabel{sec:ana_hl}{{6.6}{107}}
\newlabel{eq:exp_decay}{{\relax 6.22}{107}}
\@writefile{toc}{\contentsline {section}{\numberline {6.7}Analysis data set}{108}}
\@writefile{lot}{\contentsline {table}{\numberline {\relax 6.1}{\ignorespaces Exposure of the NEMO-3 \emph  {standard} analysis run set.}}{108}}
\newlabel{tab:run_time}{{\relax 6.1}{108}}
\@setckpt{chapters/nemo-3-analysis-techniques/chapter.nemo-3-analysis-techniques}{
\setcounter{page}{109}
\setcounter{equation}{27}
\setcounter{enumi}{0}
\setcounter{enumii}{0}
\setcounter{enumiii}{0}
\setcounter{enumiv}{0}
\setcounter{footnote}{0}
\setcounter{mpfootnote}{0}
\setcounter{part}{1}
\setcounter{chapter}{6}
\setcounter{section}{7}
\setcounter{subsection}{0}
\setcounter{subsubsection}{0}
\setcounter{paragraph}{0}
\setcounter{subparagraph}{0}
\setcounter{figure}{6}
\setcounter{table}{1}
\setcounter{cp@cntr}{0}
\setcounter{parentequation}{0}
\setcounter{r@tfl@t}{0}
\setcounter{ContinuedFloat}{0}
\setcounter{fmfgraph}{1}
\setcounter{KVtest}{1}
\setcounter{subfigure}{0}
\setcounter{subfigure@save}{2}
\setcounter{lofdepth}{1}
\setcounter{subtable}{0}
\setcounter{subtable@save}{0}
\setcounter{lotdepth}{2}
\setcounter{pp@next@reset}{0}
\setcounter{iterlist}{0}
}
