This is METAFONT, Version 2.718281 (TeX Live 2013/Debian) (base=mf 2014.2.16)  26 SEP 2014 17:10
**\mode=localfont; input 2b2n.mf
(2b2n.mf (/usr/share/texmf/metafont/feynmf/feynmf.mf)
:1:\fmfL(27.09247,7.07251,rb){$W^{-}$}%
:1:\fmfL(27.09244,32.93248,rt){$W^{-}$}%
:1:\fmfL(-1.88873,-1.00726,rt){$n$}%
:1:\fmfL(-1.88873,41.01248,rb){$n$}%
:1:\fmfL(76.90381,-1.00726,lt){$p$}%
:1:\fmfL(77.05376,7.34857,l){$e^-$}%
:1:\fmfL(77.14351,15.77481,l){$\bar {\nu }_e$}%
:1:\fmfL(77.14351,24.22977,l){$\bar {\nu }_e$}%
:1:\fmfL(77.05379,32.656,l){$e^-$}%
:1:\fmfL(76.90381,41.01183,lb){$p$}% [1] ) 
Here is how much of METAFONT's memory you used:
 680 strings out of 5274
 7695 string characters out of 69995
 37197 words of memory out of 5000000
 1382 symbolic tokens out of 9500
 14i,67n,50r,35p,124b stack positions out of 300i,300n,1000r,150p,200000b
 
(You used 2w,2h,1d,1i,0l,0k,0e,0p metric file positions
  out of 256w,16h,16d,64i,15000l,2500k,256e,60p)

Font metrics written on 2b2n.tfm.
Output written on 2b2n.600gf (1 character, 5828 bytes).
