\relax 
\catcode `"\active 
\select@language{english}
\@writefile{toc}{\select@language{english}}
\@writefile{lof}{\select@language{english}}
\@writefile{lot}{\select@language{english}}
\select@language{english}
\@writefile{toc}{\select@language{english}}
\@writefile{lof}{\select@language{english}}
\@writefile{lot}{\select@language{english}}
\@writefile{toc}{\contentsline {chapter}{List of Figures}{15}}
\@writefile{toc}{\contentsline {chapter}{List of Tables}{19}}
\@input{chapters/introduction/chapter.introduction.aux}
\@input{chapters/neutrino-theory/chapter.neutrino-theory.aux}
\@input{chapters/double-beta-decay/chapter.double-beta-decay.aux}
\@input{chapters/double-beta-decay-exp/chapter.double-beta-decay-exp.aux}
\@writefile{toc}{\contentsline {part}{\numberline {I}Search for double-$\beta $ decay of $^{48}$Ca with the NEMO-3 detector}{73}}
\@input{chapters/nemo-3-detector/chapter.nemo-3-detector.aux}
\@input{chapters/nemo-3-analysis-techniques/chapter.nemo-3-analysis-techniques.aux}
\@input{chapters/nemo-3-backgrounds/chapter.nemo-3-backgrounds.aux}
\@input{chapters/nemo-3-results/chapter.nemo-3-results.aux}
\@writefile{toc}{\contentsline {part}{\numberline {II}Tracker commissioning for the SuperNEMO detector}{163}}
\@input{chapters/supernemo-detector/chapter.supernemo-detector.aux}
\@input{chapters/supernemo-tracker/chapter.supernemo-tracker.aux}
\@input{chapters/supernemo-elec/chapter.supernemo-elec.aux}
\@input{chapters/supernemo-gas/chapter.supernemo-gas.aux}
\@input{chapters/conclusions/chapter.conclusions.aux}
\@input{structure/backmatter.aux}
\global\@altsecnumformattrue
