\relax 
\@writefile{toc}{\contentsline {chapter}{\numberline {8}\Ca  {48} double-$\beta $ decay results}{139}}
\@writefile{lof}{\addvspace {10\p@ }}
\@writefile{lot}{\addvspace {10\p@ }}
\newlabel{sec:dbd_results}{{8}{139}}
\@writefile{toc}{\contentsline {section}{\numberline {8.1}2eN$\gamma $ event selection}{139}}
\newlabel{sec:signal_selection}{{8.1}{139}}
\citation{Arnold:2011gq,motty}
\citation{motty}
\newlabel{fig:2e_vtx_disc}{{\relax 8.1a}{141}}
\newlabel{sub@fig:2e_vtx_disc}{{(a)}{a}}
\newlabel{fig:2e_cut_eff}{{\relax 8.1b}{141}}
\newlabel{sub@fig:2e_cut_eff}{{(b)}{b}}
\@writefile{lof}{\contentsline {figure}{\numberline {\relax 8.1}{\ignorespaces Mis-modelling of the distance between electron vertices in ``same side'' events and difference in efficiency of the vertex distance cuts in data and MC.}}{141}}
\@writefile{lof}{\contentsline {subfigure}{\numberline{(a)}{\ignorespaces {}}}{141}}
\@writefile{lof}{\contentsline {subfigure}{\numberline{(b)}{\ignorespaces {}}}{141}}
\@writefile{toc}{\contentsline {subsection}{\numberline {8.1.1}Validation of 2eN$\gamma $ selection on \Bi  {207} calibration source data}{141}}
\newlabel{sec:res_calib_data}{{8.1.1}{141}}
\@writefile{lot}{\contentsline {table}{\numberline {\relax 8.1}{\ignorespaces Measurement of the activity of \Bi  {207} sources with NEMO-3 and HPGe detector data.}}{142}}
\newlabel{table:Bi207_results}{{\relax 8.1}{142}}
\@writefile{toc}{\contentsline {section}{\numberline {8.2}2eN$\gamma $ distributions}{142}}
\newlabel{sec:2e-dists}{{8.2}{142}}
\citation{roger_angularDist}
\@writefile{lof}{\contentsline {figure}{\numberline {\relax 8.2}{\ignorespaces Distribution of events against the run number.}}{143}}
\newlabel{fig:2e_runNumber}{{\relax 8.2}{143}}
\newlabel{fig:2e_vtxZ}{{\relax 8.3a}{144}}
\newlabel{sub@fig:2e_vtxZ}{{(a)}{a}}
\newlabel{fig:2e_trackL}{{\relax 8.3b}{144}}
\newlabel{sub@fig:2e_trackL}{{(b)}{b}}
\@writefile{lof}{\contentsline {figure}{\numberline {\relax 8.3}{\ignorespaces Distributions of geometrical variables in 2eN$\gamma $ events.}}{144}}
\newlabel{fig:2e_geom}{{\relax 8.3}{144}}
\@writefile{lof}{\contentsline {subfigure}{\numberline{(a)}{\ignorespaces {}}}{144}}
\@writefile{lof}{\contentsline {subfigure}{\numberline{(b)}{\ignorespaces {}}}{144}}
\newlabel{fig:singleElectronE}{{\relax 8.4a}{145}}
\newlabel{sub@fig:singleElectronE}{{(a)}{a}}
\newlabel{fig:cosee}{{\relax 8.4b}{145}}
\newlabel{sub@fig:cosee}{{(b)}{b}}
\@writefile{lof}{\contentsline {figure}{\numberline {\relax 8.4}{\ignorespaces Distributions of kinematic variables in 2eN$\gamma $ events.}}{145}}
\newlabel{fig:2e_geom}{{\relax 8.4}{145}}
\@writefile{lof}{\contentsline {subfigure}{\numberline{(a)}{\ignorespaces {}}}{145}}
\@writefile{lof}{\contentsline {subfigure}{\numberline{(b)}{\ignorespaces {}}}{145}}
\@writefile{lot}{\contentsline {table}{\numberline {\relax 8.2}{\ignorespaces Activity of the \Sr  {90}/\Y  {90} system measured in the global fit and in the 2eN$\gamma $ channel.}}{145}}
\newlabel{table:y90_act_1e_2e}{{\relax 8.2}{145}}
\@writefile{toc}{\contentsline {section}{\numberline {8.3}Systematic uncertainty on the \2nu   measurement}{145}}
\newlabel{sec:2nu_syst}{{8.3}{145}}
\newlabel{fig:sumE_P1}{{\relax 8.5a}{146}}
\newlabel{sub@fig:sumE_P1}{{(a)}{a}}
\newlabel{fig:sumE_P2}{{\relax 8.5b}{146}}
\newlabel{sub@fig:sumE_P2}{{(b)}{b}}
\@writefile{lof}{\contentsline {figure}{\numberline {\relax 8.5}{\ignorespaces Distribution of the summed electron energies in 2eN$\gamma $ events.}}{146}}
\newlabel{fig:sumE}{{\relax 8.5}{146}}
\@writefile{lof}{\contentsline {subfigure}{\numberline{(a)}{\ignorespaces {Phase 1}}}{146}}
\@writefile{lof}{\contentsline {subfigure}{\numberline{(b)}{\ignorespaces {Phase 2}}}{146}}
\citation{Argyriades:2009vq}
\citation{victor_ss_os,ste_ss_os}
\@writefile{lot}{\contentsline {table}{\numberline {\relax 8.3}{\ignorespaces Systematic uncertainty on the \2nu   measurement due to data mis-modelling in ``same side'' and ``opposite side'' events.}}{149}}
\newlabel{tab:ss_os_syst}{{\relax 8.3}{149}}
\@writefile{toc}{\contentsline {subsection}{\numberline {8.3.1}Optimisation of \2nu   fitting window}{149}}
\@writefile{lof}{\contentsline {figure}{\numberline {\relax 8.6}{\ignorespaces Optimisation of the \2nu   fitting window.}}{150}}
\newlabel{fig:syst_scan}{{\relax 8.6}{150}}
\@writefile{lot}{\contentsline {table}{\numberline {\relax 8.4}{\ignorespaces Total systematic uncertainty on the \2nu   half-life measurement.}}{150}}
\newlabel{tab:tot_syst}{{\relax 8.4}{150}}
\citation{Brudanin200063}
\citation{PhysRevLett.77.5186}
\citation{PhysRevC.85.034316}
\citation{Suhonen1998123}
\citation{Suhonen1998123,PhysRevC.42.1120}
\citation{PhysRevC.42.1120,Suhonen1998123,RevModPhys.77.427}
\citation{Suhonen1998123}
\citation{pre_erratum}
\citation{post_erratum,RevModPhys.77.427}
\citation{PhysRevC.75.034303,Caurier201262}
\@writefile{toc}{\contentsline {section}{\numberline {8.4}\2nu   half-life result and discussion}{151}}
\newlabel{sec:2nu-disc}{{8.4}{151}}
\citation{Tsuboi1984293}
\citation{Ogawa:1989qz}
\citation{PhysRevC.42.1120}
\citation{Zheng1990343}
\citation{RevModPhys.77.427}
\citation{PhysRevC.75.034303}
\citation{Caurier201262}
\citation{Ogawa:1989qz,Tsuboi1984293}
\citation{PhysRevC.42.1120}
\citation{Muto19849}
\citation{Richter1991325}
\citation{Kuo1968241}
\citation{PhysRevC.31.1012}
\citation{PhysRevC.65.061301}
\citation{Ogawa:1989qz,Tsuboi1984293}
\citation{PhysRevC.42.1120}
\citation{Muto19849}
\citation{Richter1991325}
\citation{Kuo1968241}
\citation{PhysRevC.31.1012}
\citation{PhysRevC.65.061301}
\@writefile{lof}{\contentsline {figure}{\numberline {\relax 8.7}{\ignorespaces Comparison of the measured $\left | M^{2\nu }\right |$ to theoretical calculations.}}{152}}
\newlabel{fig:twnu_nme_res}{{\relax 8.7}{152}}
\citation{Collie}
\@writefile{toc}{\contentsline {section}{\numberline {8.5}Limits on \0nu   and discussion of results}{153}}
\newlabel{sec:0nu-lims}{{8.5}{153}}
\@writefile{lot}{\contentsline {table}{\numberline {\relax 8.5}{\ignorespaces Systematic uncertainties used in \0nu   limits.}}{153}}
\newlabel{tab:0nu_syst}{{\relax 8.5}{153}}
\@writefile{lot}{\contentsline {table}{\numberline {\relax 8.6}{\ignorespaces Limits on \0nu   modes.}}{154}}
\newlabel{tab:0nu_lims}{{\relax 8.6}{154}}
\@writefile{toc}{\contentsline {subsubsection}{Mass mechanism}{154}}
\@writefile{lof}{\contentsline {figure}{\numberline {\relax 8.8}{\ignorespaces 2eN$\gamma $ summed electron distribution with \0nu   limits.}}{155}}
\newlabel{fig:0nu-lims}{{\relax 8.8}{155}}
\@writefile{lof}{\contentsline {figure}{\numberline {\relax 8.9}{\ignorespaces 2eN$\gamma $ background subtracted data with \0nu   limits.}}{155}}
\newlabel{fig:0nu-lims-sub}{{\relax 8.9}{155}}
\citation{Helene:1982pb}
\citation{PhysRevC.78.058501}
\citation{PhysRevC.85.034316}
\citation{PhysRevC.87.014320,PhysRevLett.100.052503}
\citation{1993JPhG...19..139S,PhysRevC.53.695}
\citation{PhysRevC.87.014315}
\citation{PhysRevLett.105.252503}
\citation{kamland-zen}
\citation{PhysRevLett.109.032505}
\citation{Arnold:2013dha}
\newlabel{eq:0nu_res}{{\relax 8.4}{156}}
\citation{Arnold:2013dha}
\citation{PhysRevC.78.058501}
\citation{kamland-zen}
\citation{0034-4885-75-10-106301}
\@writefile{toc}{\contentsline {subsubsection}{${\mathchoice {{\setbox \z@ \hbox {$\mathsurround \z@ \displaystyle R$}\setbox \tw@ \hbox {$\mathsurround \z@ \displaystyle /$}\dimen 4\wd \z@ \dimen@ \ht \tw@ \advance \dimen@ -\dp \tw@ \advance \dimen@ -\ht \z@ \advance \dimen@ \dp \z@ \divide \dimen@ \tw@ \advance \dimen@ -0\ht \tw@ \advance \dimen@ -0\dp \tw@ \dimen@ii 0\wd \z@ \raise -\dimen@ \hbox to\dimen 4{\hss \kern \dimen@ii \box \tw@ \kern -\dimen@ii \hss }\hbox to\z@ {\hss \hbox to\dimen 4{\hss \box \z@ \hss }}}}{{\setbox \z@ \hbox {$\mathsurround \z@ \textstyle R$}\setbox \tw@ \hbox {$\mathsurround \z@ \textstyle /$}\dimen 4\wd \z@ \dimen@ \ht \tw@ \advance \dimen@ -\dp \tw@ \advance \dimen@ -\ht \z@ \advance \dimen@ \dp \z@ \divide \dimen@ \tw@ \advance \dimen@ -0\ht \tw@ \advance \dimen@ -0\dp \tw@ \dimen@ii 0\wd \z@ \raise -\dimen@ \hbox to\dimen 4{\hss \kern \dimen@ii \box \tw@ \kern -\dimen@ii \hss }\hbox to\z@ {\hss \hbox to\dimen 4{\hss \box \z@ \hss }}}}{{\setbox \z@ \hbox {$\mathsurround \z@ \scriptstyle R$}\setbox \tw@ \hbox {$\mathsurround \z@ \scriptstyle /$}\dimen 4\wd \z@ \dimen@ \ht \tw@ \advance \dimen@ -\dp \tw@ \advance \dimen@ -\ht \z@ \advance \dimen@ \dp \z@ \divide \dimen@ \tw@ \advance \dimen@ -0\ht \tw@ \advance \dimen@ -0\dp \tw@ \dimen@ii 0\wd \z@ \raise -\dimen@ \hbox to\dimen 4{\hss \kern \dimen@ii \box \tw@ \kern -\dimen@ii \hss }\hbox to\z@ {\hss \hbox to\dimen 4{\hss \box \z@ \hss }}}}{{\setbox \z@ \hbox {$\mathsurround \z@ \scriptscriptstyle R$}\setbox \tw@ \hbox {$\mathsurround \z@ \scriptscriptstyle /$}\dimen 4\wd \z@ \dimen@ \ht \tw@ \advance \dimen@ -\dp \tw@ \advance \dimen@ -\ht \z@ \advance \dimen@ \dp \z@ \divide \dimen@ \tw@ \advance \dimen@ -0\ht \tw@ \advance \dimen@ -0\dp \tw@ \dimen@ii 0\wd \z@ \raise -\dimen@ \hbox to\dimen 4{\hss \kern \dimen@ii \box \tw@ \kern -\dimen@ii \hss }\hbox to\z@ {\hss \hbox to\dimen 4{\hss \box \z@ \hss }}}}}_p$ supersymmetry}{157}}
\@writefile{lof}{\contentsline {figure}{\numberline {\relax 8.10}{\ignorespaces Comparison of the $\mathinner {\delimiter "426830A {m_{\beta \beta }}\delimiter "526930B }$ limit measured in this analysis to the best available limits with \Ca  {48}, \Mo  {100} and \Xe  {136}.}}{158}}
\newlabel{fig:0nu-lims-comp}{{\relax 8.10}{158}}
\citation{PhysRevC.87.014320,PhysRevD.60.115007}
\citation{Hirsch1998224}
\citation{Arnold:2013dha}
\citation{Allanach:2014lca}
\citation{Allanach:2014lca}
\citation{supernemoPheno}
\@writefile{toc}{\contentsline {subsubsection}{Right-handed currents}{159}}
\newlabel{eq:0nu_lambda_res}{{\relax 8.10}{159}}
\newlabel{eq:0nu_lambda_res}{{\relax 8.11}{159}}
\citation{Suhonen1998123}
\citation{Arnold:2013dha}
\citation{PhysRevD.55.54}
\citation{PhysRevC.87.014320,PhysRevD.86.055006}
\citation{PhysRevC.87.014320,supernemoPheno}
\citation{PhysRevD.86.055006}
\citation{pdg}
\citation{supernemoPheno}
\citation{Dev:2014xea}
\citation{Suhonen1998123}
\citation{PhysRevC.86.021601}
\citation{Arnold:2013dha}
\citation{PhysRevD.64.095005}
\@writefile{toc}{\contentsline {subsubsection}{Majoron emission}{161}}
\@setckpt{chapters/nemo-3-results/chapter.nemo-3-results}{
\setcounter{page}{162}
\setcounter{equation}{18}
\setcounter{enumi}{0}
\setcounter{enumii}{0}
\setcounter{enumiii}{0}
\setcounter{enumiv}{0}
\setcounter{footnote}{3}
\setcounter{mpfootnote}{0}
\setcounter{part}{1}
\setcounter{chapter}{8}
\setcounter{section}{5}
\setcounter{subsection}{0}
\setcounter{subsubsection}{0}
\setcounter{paragraph}{0}
\setcounter{subparagraph}{0}
\setcounter{figure}{10}
\setcounter{table}{6}
\setcounter{cp@cntr}{0}
\setcounter{parentequation}{0}
\setcounter{r@tfl@t}{0}
\setcounter{ContinuedFloat}{0}
\setcounter{fmfgraph}{1}
\setcounter{KVtest}{1}
\setcounter{subfigure}{0}
\setcounter{subfigure@save}{2}
\setcounter{lofdepth}{1}
\setcounter{subtable}{0}
\setcounter{subtable@save}{0}
\setcounter{lotdepth}{2}
\setcounter{pp@next@reset}{0}
\setcounter{iterlist}{0}
}
