\relax 
\@writefile{toc}{\contentsline {chapter}{\numberline {12}Gas mixing system for the Demonstrator module}{205}}
\@writefile{lof}{\addvspace {10\p@ }}
\@writefile{lot}{\addvspace {10\p@ }}
\newlabel{sec:sn-gas}{{12}{205}}
\@writefile{toc}{\contentsline {section}{\numberline {12.1}Principle of operation}{205}}
\citation{me-press}
\@writefile{lof}{\contentsline {figure}{\numberline {\relax 12.1}{\ignorespaces Flow diagram for the Demonstrator's gas mixing system.}}{207}}
\newlabel{fig:flow-diagram}{{\relax 12.1}{207}}
\@writefile{lof}{\contentsline {figure}{\numberline {\relax 12.2}{\ignorespaces Diagram of a tentative gas outlet system of the Demonstrator.}}{208}}
\newlabel{fig:flow-gas-out}{{\relax 12.2}{208}}
\@writefile{toc}{\contentsline {subsection}{\numberline {12.1.1}Two-stage ethanol vapour addition}{208}}
\newlabel{eq:gas-eq}{{\relax 12.1}{208}}
\citation{NIST}
\citation{NIST}
\newlabel{eq:antoine}{{\relax 12.2}{209}}
\newlabel{fig:antoine-vs-p}{{\relax 12.3a}{210}}
\newlabel{sub@fig:antoine-vs-p}{{(a)}{a}}
\newlabel{fig:antoine-vs-t}{{\relax 12.3b}{210}}
\newlabel{sub@fig:antoine-vs-t}{{(b)}{b}}
\@writefile{lof}{\contentsline {figure}{\numberline {\relax 12.3}{\ignorespaces Fractional volumes of ethanol obtained at equilibrium under controlled temperature and pressure conditions.}}{210}}
\@writefile{lof}{\contentsline {subfigure}{\numberline{(a)}{\ignorespaces {}}}{210}}
\@writefile{lof}{\contentsline {subfigure}{\numberline{(b)}{\ignorespaces {}}}{210}}
\@writefile{toc}{\contentsline {section}{\numberline {12.2}Materials}{210}}
\citation{motty}
\@writefile{lof}{\contentsline {figure}{\numberline {\relax 12.4}{\ignorespaces Photograph of the Demonstrator's gas mixing system.}}{211}}
\newlabel{fig:gas-photo}{{\relax 12.4}{211}}
\@writefile{toc}{\contentsline {section}{\numberline {12.3}Tests}{212}}
\citation{motty}
\citation{decapua-flow}
\@writefile{lof}{\contentsline {figure}{\numberline {\relax 12.5}{\ignorespaces Ethanol volume fraction in the gas measured by the depletion rate of liquid ethanol.}}{213}}
\newlabel{fig:eth-frac}{{\relax 12.5}{213}}
\@writefile{toc}{\contentsline {section}{\numberline {12.4}Flow rate and \Rn  {222} activity in the tracker}{213}}
\citation{busto}
\@setckpt{chapters/supernemo-gas/chapter.supernemo-gas}{
\setcounter{page}{215}
\setcounter{equation}{3}
\setcounter{enumi}{0}
\setcounter{enumii}{0}
\setcounter{enumiii}{0}
\setcounter{enumiv}{0}
\setcounter{footnote}{0}
\setcounter{mpfootnote}{0}
\setcounter{part}{2}
\setcounter{chapter}{12}
\setcounter{section}{4}
\setcounter{subsection}{0}
\setcounter{subsubsection}{0}
\setcounter{paragraph}{0}
\setcounter{subparagraph}{0}
\setcounter{figure}{5}
\setcounter{table}{0}
\setcounter{cp@cntr}{0}
\setcounter{parentequation}{0}
\setcounter{r@tfl@t}{0}
\setcounter{ContinuedFloat}{0}
\setcounter{fmfgraph}{1}
\setcounter{KVtest}{1}
\setcounter{subfigure}{0}
\setcounter{subfigure@save}{2}
\setcounter{lofdepth}{1}
\setcounter{subtable}{0}
\setcounter{subtable@save}{0}
\setcounter{lotdepth}{2}
\setcounter{pp@next@reset}{0}
\setcounter{iterlist}{0}
}
