\relax 
\bibstyle{bibliography/bibstyles/atlasnote}
\bibdata{bibliography/thesis}
\bibcite{Chadwick:1914zz}{1}
\bibcite{Kragh:1493569}{2}
\bibcite{Brown:1978pb}{3}
\bibcite{Wilson:Fermi}{4}
\bibcite{Cowan:1992xc}{5}
\bibcite{Wu:1957}{6}
\bibcite{LeeYang:1956}{7}
\bibcite{Goldhaber:1958nb}{8}
\bibcite{muonconfirmation}{9}
\bibcite{tauevidence}{10}
\bibcite{munu_discovery}{11}
\@writefile{toc}{\contentsline {chapter}{Bibliography}{219}}
\bibcite{nutau_discovery}{12}
\bibcite{LEP_Z_res}{13}
\bibcite{Giunti-Kim-2007}{14}
\bibcite{Pontecorvo:1957cp}{15}
\bibcite{Davis:1968cp}{16}
\bibcite{Gallex}{17}
\bibcite{SAGE}{18}
\bibcite{Maki:1962mu}{19}
\bibcite{Pontecorvo:1967fh}{20}
\bibcite{SNO}{21}
\bibcite{SuperK}{22}
\bibcite{Kayser:2005cd}{23}
\bibcite{Wolfenstein_MSW}{24}
\bibcite{Mikheev:1986wj}{25}
\bibcite{lsnd}{26}
\bibcite{miniboone}{27}
\bibcite{pdg}{28}
\bibcite{LBNE}{29}
\bibcite{NOvA}{30}
\bibcite{motty}{31}
\bibcite{majorana}{32}
\bibcite{SchechterValle}{33}
\bibcite{Bowles:1997br}{34}
\bibcite{Drexlin:2013lha}{35}
\bibcite{Wieslander:2009zz}{36}
\bibcite{troitsk}{37}
\bibcite{mainz}{38}
\bibcite{Osipowicz:2001sq}{39}
\bibcite{Nucciotti:2010tx}{40}
\bibcite{PhysRevD.80.051301}{41}
\bibcite{Hinshaw:2012aka}{42}
\bibcite{Thomas:2009ae}{43}
\bibcite{kamland-zen}{44}
\bibcite{Rodejohann:2012xd}{45}
\bibcite{Biller:2013wua}{46}
\bibcite{Weizscker:1935zz}{47}
\bibcite{GoeppertMayer:1935qp}{48}
\bibcite{doi:10.1146/annurev-nucl-102711-094904}{49}
\bibcite{post_erratum}{50}
\bibcite{supernemoPheno}{51}
\bibcite{Bamert199525}{52}
\bibcite{0034-4885-75-10-106301}{53}
\bibcite{RevModPhys.80.481}{54}
\bibcite{Nishino:2012ipa}{55}
\bibcite{Barbier:2004ez}{56}
\bibcite{PhysRevC.21.1568}{57}
\bibcite{KlapdorKleingrothaus:2004wj}{58}
\bibcite{Aalseth:2002dt}{59}
\bibcite{PhysRevLett.109.032505}{60}
\bibcite{Agostini:2013mzu}{61}
\bibcite{BarnabéHeider2012141}{62}
\bibcite{Shirai201328}{63}
\bibcite{Gomez-Cadenas:2013lta}{64}
\bibcite{KlapdorKleingrothaus:2000sn}{65}
\bibcite{igex}{66}
\bibcite{Agostini:2012nm}{67}
\bibcite{Knöpfle201331}{68}
\bibcite{Abgrall:2013rze}{69}
\bibcite{Wilson2011313}{70}
\bibcite{Andreotti:2010vj}{71}
\bibcite{1742-6596-447-1-012066}{72}
\bibcite{Wilson:2013iop}{73}
\bibcite{Albert:2013gpz}{74}
\bibcite{exo-ton}{75}
\bibcite{Arnold:2013dha}{76}
\bibcite{PhysRev.146.810}{77}
\bibcite{You199153}{78}
\bibcite{PhysRevLett.77.5186}{79}
\bibcite{Brudanin200063}{80}
\bibcite{PhysRevC.78.058501}{81}
\bibcite{Argyriades:2009ph}{82}
\bibcite{Arnold:2005rz}{83}
\bibcite{1742-6596-375-4-042011}{84}
\bibcite{Arnold:2011gq}{85}
\bibcite{Argyriades:2008pr}{86}
\bibcite{PhysRevC.68.035501}{87}
\bibcite{Arnold:2004xq}{88}
\bibcite{victorDia1}{89}
\bibcite{victorDia2}{90}
\bibcite{victor_rotation}{91}
\bibcite{Schmidt:2013gdc}{92}
\bibcite{Argyriades:2009vq}{93}
\bibcite{Ponkratenko:2000um}{94}
\bibcite{Brun:1987ma}{95}
\bibcite{TOF_note}{96}
\bibcite{Minuit}{97}
\bibcite{ROOT}{98}
\bibcite{GlenCowan}{99}
\bibcite{Zech1989608}{100}
\bibcite{0954-3899-28-10-313}{101}
\bibcite{wilks1938}{102}
\bibcite{Cowan:2013pha}{103}
\bibcite{Collie}{104}
\bibcite{NNDC}{105}
\bibcite{sophieNd150}{106}
\bibcite{piaHPGe}{107}
\bibcite{roger_angularDist}{108}
\bibcite{victor_ss_os}{109}
\bibcite{ste_ss_os}{110}
\bibcite{PhysRevC.85.034316}{111}
\bibcite{Suhonen1998123}{112}
\bibcite{PhysRevC.42.1120}{113}
\bibcite{RevModPhys.77.427}{114}
\bibcite{pre_erratum}{115}
\bibcite{PhysRevC.75.034303}{116}
\bibcite{Caurier201262}{117}
\bibcite{Tsuboi1984293}{118}
\bibcite{Ogawa:1989qz}{119}
\bibcite{Zheng1990343}{120}
\bibcite{Muto19849}{121}
\bibcite{Richter1991325}{122}
\bibcite{Kuo1968241}{123}
\bibcite{PhysRevC.31.1012}{124}
\bibcite{PhysRevC.65.061301}{125}
\bibcite{Helene:1982pb}{126}
\bibcite{PhysRevC.87.014320}{127}
\bibcite{PhysRevLett.100.052503}{128}
\bibcite{1993JPhG...19..139S}{129}
\bibcite{PhysRevC.53.695}{130}
\bibcite{PhysRevC.87.014315}{131}
\bibcite{PhysRevLett.105.252503}{132}
\bibcite{PhysRevD.60.115007}{133}
\bibcite{Hirsch1998224}{134}
\bibcite{Allanach:2014lca}{135}
\bibcite{PhysRevD.55.54}{136}
\bibcite{PhysRevD.86.055006}{137}
\bibcite{Dev:2014xea}{138}
\bibcite{PhysRevC.86.021601}{139}
\bibcite{PhysRevD.64.095005}{140}
\bibcite{bipo}{141}
\bibcite{rnDiffusion}{142}
\bibcite{Wilkinson1992195}{143}
\bibcite{Wilkinson1996516}{144}
\bibcite{PhysRev.72.602}{145}
\bibcite{manu}{146}
\bibcite{geiger-disso}{147}
\bibcite{PhysRev.50.48}{148}
\bibcite{Vavra20031}{149}
\bibcite{NIST}{150}
\bibcite{manu-dead-time}{151}
\bibcite{manu-tracker-signal}{152}
\bibcite{Maneschg2008448}{153}
\bibcite{manu-wire-test}{154}
\bibcite{perry-sn-hv}{155}
\bibcite{manu-derived-sig}{156}
\bibcite{Adamson2006119}{157}
\bibcite{samer}{158}
\bibcite{mine-comm-elec}{159}
\bibcite{manchester-data}{160}
\bibcite{me-press}{161}
\bibcite{decapua-flow}{162}
\bibcite{busto}{163}
\@setckpt{structure/backmatter}{
\setcounter{page}{233}
\setcounter{equation}{12}
\setcounter{enumi}{0}
\setcounter{enumii}{0}
\setcounter{enumiii}{0}
\setcounter{enumiv}{163}
\setcounter{footnote}{0}
\setcounter{mpfootnote}{0}
\setcounter{part}{2}
\setcounter{chapter}{0}
\setcounter{section}{0}
\setcounter{subsection}{0}
\setcounter{subsubsection}{0}
\setcounter{paragraph}{0}
\setcounter{subparagraph}{0}
\setcounter{figure}{0}
\setcounter{table}{0}
\setcounter{cp@cntr}{0}
\setcounter{parentequation}{0}
\setcounter{r@tfl@t}{0}
\setcounter{ContinuedFloat}{0}
\setcounter{fmfgraph}{1}
\setcounter{KVtest}{1}
\setcounter{subfigure}{0}
\setcounter{subfigure@save}{2}
\setcounter{lofdepth}{1}
\setcounter{subtable}{0}
\setcounter{subtable@save}{0}
\setcounter{lotdepth}{2}
\setcounter{pp@next@reset}{0}
\setcounter{iterlist}{0}
}
