\relax 
\@writefile{toc}{\contentsline {chapter}{\numberline {11}Electrostatic simulations}{161}}
\@writefile{lof}{\addvspace {10\p@ }}
\@writefile{lot}{\addvspace {10\p@ }}
\@writefile{toc}{\contentsline {section}{\numberline {11.1}Simulation of gaseous detectors with Garfield}{161}}
\@writefile{toc}{\contentsline {subsection}{\numberline {11.1.1}Heed}{161}}
\@writefile{toc}{\contentsline {subsection}{\numberline {11.1.2}Magboltz}{161}}
\@writefile{toc}{\contentsline {section}{\numberline {11.2}Effective cell potential}{161}}
\@writefile{toc}{\contentsline {subsection}{\numberline {11.2.1}Optimisation of voltage applied to anode wires}{162}}
\@writefile{toc}{\contentsline {subsubsection}{Method}{162}}
\@writefile{toc}{\contentsline {subsubsection}{Results}{162}}
\@writefile{toc}{\contentsline {section}{\numberline {11.3}Drift model simulation}{162}}
\@writefile{toc}{\contentsline {subsection}{\numberline {11.3.1}Primary ionisation position and distance of closest approach}{162}}
\@writefile{toc}{\contentsline {subsection}{\numberline {11.3.2}Near-anode regime}{162}}
\@writefile{toc}{\contentsline {subsection}{\numberline {11.3.3}Away-from-anode regime}{162}}
\@writefile{toc}{\contentsline {subsubsection}{Bulk cells}{162}}
\@writefile{toc}{\contentsline {subsubsection}{Edge cells}{162}}
\@setckpt{chapters/supernemo-sim/chapter.supernemo-sim}{
\setcounter{page}{163}
\setcounter{equation}{0}
\setcounter{enumi}{0}
\setcounter{enumii}{0}
\setcounter{enumiii}{0}
\setcounter{enumiv}{0}
\setcounter{footnote}{0}
\setcounter{mpfootnote}{0}
\setcounter{part}{2}
\setcounter{chapter}{11}
\setcounter{section}{3}
\setcounter{subsection}{3}
\setcounter{subsubsection}{0}
\setcounter{paragraph}{0}
\setcounter{subparagraph}{0}
\setcounter{figure}{0}
\setcounter{table}{0}
\setcounter{cp@cntr}{0}
\setcounter{parentequation}{0}
\setcounter{r@tfl@t}{0}
\setcounter{ContinuedFloat}{0}
\setcounter{fmfgraph}{1}
\setcounter{KVtest}{1}
\setcounter{subfigure}{0}
\setcounter{subfigure@save}{2}
\setcounter{lofdepth}{1}
\setcounter{subtable}{0}
\setcounter{subtable@save}{0}
\setcounter{lotdepth}{2}
\setcounter{pp@next@reset}{0}
\setcounter{iterlist}{0}
}
