\relax 
\citation{Chadwick:1914zz}
\citation{Kragh:1493569}
\@writefile{toc}{\contentsline {chapter}{\numberline {2}Neutrino Phenomenology}{27}}
\@writefile{lof}{\addvspace {10\p@ }}
\@writefile{lot}{\addvspace {10\p@ }}
\newlabel{sec:nupheno}{{2}{27}}
\@writefile{toc}{\contentsline {section}{\numberline {2.1}Historical overview}{27}}
\@writefile{toc}{\contentsline {subsection}{\numberline {2.1.1}Radioactive decay}{27}}
\citation{Brown:1978pb}
\citation{Wilson:Fermi}
\citation{Cowan:1992xc}
\citation{Wu:1957}
\citation{LeeYang:1956}
\@writefile{toc}{\contentsline {subsection}{\numberline {2.1.2}Proposal and observation of the neutrino}{28}}
\@writefile{toc}{\contentsline {subsection}{\numberline {2.1.3}Parity violation in weak interactions}{28}}
\citation{Goldhaber:1958nb}
\citation{muonconfirmation,tauevidence}
\citation{munu_discovery}
\citation{nutau_discovery}
\citation{LEP_Z_res}
\@writefile{toc}{\contentsline {subsection}{\numberline {2.1.4}Neutrino flavour}{29}}
\newlabel{sec:nu-flavour}{{2.1.4}{29}}
\citation{LEP_Z_res}
\citation{LEP_Z_res}
\citation{Giunti-Kim-2007}
\@writefile{lof}{\contentsline {figure}{\numberline {\relax 2.1}{\ignorespaces Measurement of the hadronic cross-section at the Z mass pole by the LEP experiments.}}{30}}
\providecommand*\caption@xref[2]{\@setref\relax\@undefined{#1}}
\newlabel{fig:neutrino-theory:LEP_Z_Res}{{\relax 2.1}{30}}
\@writefile{toc}{\contentsline {section}{\numberline {2.2}Neutrinos in the SM}{30}}
\newlabel{sec:nus_in_sm}{{2.2}{30}}
\citation{Pontecorvo:1957cp}
\newlabel{fig:neutrino-theory:CC-vtx}{{\relax 2.2a}{31}}
\newlabel{sub@fig:neutrino-theory:CC-vtx}{{(a)}{a}}
\newlabel{fig:neutrino-theory:NC-vtx}{{\relax 2.2b}{31}}
\newlabel{sub@fig:neutrino-theory:NC-vtx}{{(b)}{b}}
\@writefile{lof}{\contentsline {figure}{\numberline {\relax 2.2}{\ignorespaces Standard Model vertices involving neutrinos.}}{31}}
\newlabel{fig:nu_vtx}{{\relax 2.2}{31}}
\@writefile{lof}{\contentsline {subfigure}{\numberline{(a)}{\ignorespaces {Charged current vertex.}}}{31}}
\@writefile{lof}{\contentsline {subfigure}{\numberline{(b)}{\ignorespaces {Neutral current vertex.}}}{31}}
\@writefile{toc}{\contentsline {section}{\numberline {2.3}Neutrino oscillations}{31}}
\newlabel{oscillations}{{2.3}{31}}
\newlabel{fig:neutrino-theory:CC-Electron}{{\relax 2.3a}{32}}
\newlabel{sub@fig:neutrino-theory:CC-Electron}{{(a)}{a}}
\newlabel{fig:neutrino-theory:NC-Electron}{{\relax 2.3b}{32}}
\newlabel{sub@fig:neutrino-theory:NC-Electron}{{(b)}{b}}
\newlabel{fig:neutrino-theory:CC-Nucleon}{{\relax 2.3c}{32}}
\newlabel{sub@fig:neutrino-theory:CC-Nucleon}{{(c)}{c}}
\newlabel{fig:neutrino-theory:NC-Nucleon}{{\relax 2.3d}{32}}
\newlabel{sub@fig:neutrino-theory:NC-Nucleon}{{(d)}{d}}
\@writefile{lof}{\contentsline {figure}{\numberline {\relax 2.3}{\ignorespaces Neutrino interactions with matter: charged and neutral current scattering off nucleons or atomic electrons.}}{32}}
\newlabel{fig:neutrino-theory:neutrino-interactions}{{\relax 2.3}{32}}
\@writefile{lof}{\contentsline {subfigure}{\numberline{(a)}{\ignorespaces {CC $\nu $-$e^-$ Scattering}}}{32}}
\@writefile{lof}{\contentsline {subfigure}{\numberline{(b)}{\ignorespaces {NC $\nu $-$e^-$ Scattering}}}{32}}
\@writefile{lof}{\contentsline {subfigure}{\numberline{(c)}{\ignorespaces {CC $\nu $-$N$ Scattering}}}{32}}
\@writefile{lof}{\contentsline {subfigure}{\numberline{(d)}{\ignorespaces {NC $\nu $-$N$ Scattering}}}{32}}
\citation{Davis:1968cp}
\citation{Gallex}
\citation{SAGE}
\citation{Maki:1962mu,Pontecorvo:1967fh}
\citation{SNO}
\citation{SuperK}
\@writefile{toc}{\contentsline {subsection}{\numberline {2.3.1}The solar neutrino anomaly}{33}}
\newlabel{sec:solar}{{2.3.1}{33}}
\citation{Maki:1962mu}
\citation{Kayser:2005cd}
\@writefile{toc}{\contentsline {subsection}{\numberline {2.3.2}Neutrino mixing}{34}}
\newlabel{sec:nu_mix}{{2.3.2}{34}}
\citation{Wolfenstein_MSW,Mikheev:1986wj}
\newlabel{eq:osc_prob}{{\relax 2.4}{35}}
\@writefile{toc}{\contentsline {subsection}{\numberline {2.3.3}Oscillations in matter}{35}}
\newlabel{sec:osc_matter}{{2.3.3}{35}}
\citation{Kayser:2005cd}
\citation{lsnd}
\citation{miniboone}
\citation{pdg}
\citation{pdg}
\citation{LBNE,NOvA}
\@writefile{toc}{\contentsline {subsection}{\numberline {2.3.4}Oscillation parameters}{36}}
\citation{motty}
\citation{motty}
\citation{LBNE,NOvA}
\citation{Kayser:2005cd}
\@writefile{lot}{\contentsline {table}{\numberline {\relax 2.1}{\ignorespaces Best fit oscillation parameters assuming normal hierarchy.}}{37}}
\newlabel{table:osc_parameters}{{\relax 2.1}{37}}
\@writefile{toc}{\contentsline {subsection}{\numberline {2.3.5}Mass hierarchy}{37}}
\@writefile{toc}{\contentsline {section}{\numberline {2.4}Neutrino Mass}{37}}
\@writefile{lof}{\contentsline {figure}{\numberline {\relax 2.4}{\ignorespaces Normal and inverted scenarios for the neutrino mass spectrum.}}{38}}
\newlabel{fig:neutrino-theory:MassHierarchy}{{\relax 2.4}{38}}
\@writefile{toc}{\contentsline {subsection}{\numberline {2.4.1}Dirac mass term}{38}}
\newlabel{eq:dirac_mass}{{\relax 2.6}{38}}
\citation{majorana}
\citation{SchechterValle}
\@writefile{toc}{\contentsline {subsection}{\numberline {2.4.2}Majorana mass term}{39}}
\newlabel{sec:maj_mass_term}{{2.4.2}{39}}
\newlabel{eq:maj_mass}{{\relax 2.7}{39}}
\newlabel{eq:maj_conj}{{\relax 2.8}{39}}
\@writefile{toc}{\contentsline {subsection}{\numberline {2.4.3}See-saw mechanism}{40}}
\newlabel{eq:gen_mass}{{\relax 2.10}{40}}
\newlabel{eq:mass_matrix}{{\relax 2.11}{40}}
\newlabel{eq:mass_eigenvals}{{\relax 2.12}{40}}
\newlabel{eq:mass_eigenvals_limit}{{\relax 2.14}{40}}
\newlabel{eq:mass_in_SM_states}{{\relax 2.16}{40}}
\citation{Bowles:1997br}
\citation{Bowles:1997br}
\@writefile{toc}{\contentsline {section}{\numberline {2.5}Constraints on neutrino mass}{41}}
\@writefile{toc}{\contentsline {subsection}{\numberline {2.5.1}Beta decay of tritium}{41}}
\citation{Drexlin:2013lha,Wieslander:2009zz}
\citation{troitsk}
\citation{mainz}
\@writefile{lof}{\contentsline {figure}{\numberline {\relax 2.5}{\ignorespaces Electron energy spectrum in the $\beta $ decay of tritium}}{42}}
\newlabel{fig:neutrino-theory:TritiumSpectrum}{{\relax 2.5}{42}}
\newlabel{eq:tritium_decay}{{\relax 2.17}{42}}
\newlabel{eq:tritium_mass}{{\relax 2.18}{42}}
\citation{Osipowicz:2001sq}
\citation{Nucciotti:2010tx}
\citation{PhysRevD.80.051301}
\citation{Hinshaw:2012aka}
\citation{Thomas:2009ae}
\@writefile{toc}{\contentsline {subsection}{\numberline {2.5.2}Cosmology}{43}}
\@writefile{toc}{\contentsline {subsection}{\numberline {2.5.3}Neutrinoless double-$\beta $ decay}{43}}
\citation{kamland-zen}
\citation{troitsk,mainz}
\citation{Thomas:2009ae,Hinshaw:2012aka}
\citation{kamland-zen}
\citation{pdg}
\newlabel{eq:eff-maj-mass}{{\relax 2.19}{44}}
\@writefile{lot}{\contentsline {table}{\numberline {\relax 2.2}{\ignorespaces Current limits on neutrino mass.}}{44}}
\newlabel{tab:nu_mass_lim}{{\relax 2.2}{44}}
\@writefile{toc}{\contentsline {section}{\numberline {2.6}Summary and outlook}{44}}
\citation{motty}
\citation{Rodejohann:2012xd}
\citation{motty}
\citation{Rodejohann:2012xd}
\citation{Biller:2013wua}
\@writefile{lof}{\contentsline {figure}{\numberline {\relax 2.6}{\ignorespaces Effective \0nu   mass against smallest neutrino mass.}}{45}}
\newlabel{fig:bbmass_smallestmass}{{\relax 2.6}{45}}
\@setckpt{chapters/neutrino-theory/chapter.neutrino-theory}{
\setcounter{page}{46}
\setcounter{equation}{19}
\setcounter{enumi}{0}
\setcounter{enumii}{0}
\setcounter{enumiii}{0}
\setcounter{enumiv}{0}
\setcounter{footnote}{2}
\setcounter{mpfootnote}{0}
\setcounter{part}{0}
\setcounter{chapter}{2}
\setcounter{section}{6}
\setcounter{subsection}{0}
\setcounter{subsubsection}{0}
\setcounter{paragraph}{0}
\setcounter{subparagraph}{0}
\setcounter{figure}{6}
\setcounter{table}{2}
\setcounter{cp@cntr}{0}
\setcounter{parentequation}{0}
\setcounter{r@tfl@t}{0}
\setcounter{ContinuedFloat}{0}
\setcounter{fmfgraph}{1}
\setcounter{KVtest}{1}
\setcounter{subfigure}{0}
\setcounter{subfigure@save}{4}
\setcounter{lofdepth}{1}
\setcounter{subtable}{0}
\setcounter{subtable@save}{0}
\setcounter{lotdepth}{2}
\setcounter{pp@next@reset}{0}
\setcounter{iterlist}{0}
}
