\relax 
\citation{Arnold:2013dha}
\citation{Arnold:2004xq}
\@writefile{toc}{\contentsline {chapter}{\numberline {5}The NEMO-3 detector}{75}}
\@writefile{lof}{\addvspace {10\p@ }}
\@writefile{lot}{\addvspace {10\p@ }}
\newlabel{sec:nemo-3-det}{{5}{75}}
\@writefile{toc}{\contentsline {section}{\numberline {5.1}Source foils}{75}}
\@writefile{lof}{\contentsline {figure}{\numberline {\relax 5.1}{\ignorespaces Cutaway drawing of the NEMO-3 detector.}}{76}}
\newlabel{fig:detector}{{\relax 5.1}{76}}
\@writefile{lof}{\contentsline {figure}{\numberline {\relax 5.2}{\ignorespaces Top-view diagram of the NEMO-3 detector.}}{76}}
\newlabel{fig:NemoTopViewDiag}{{\relax 5.2}{76}}
\citation{Arnold:2004xq}
\citation{victorDia1,victorDia2}
\@writefile{lof}{\contentsline {figure}{\numberline {\relax 5.3}{\ignorespaces Arrangement of the different sources in the NEMO-3 detector.}}{77}}
\newlabel{fig:camembert}{{\relax 5.3}{77}}
\@writefile{lof}{\contentsline {figure}{\numberline {\relax 5.4}{\ignorespaces Map of the \Ca  {48} and neighbouring sources as seen in NEMO-3 data.}}{78}}
\newlabel{fig:source_in_data}{{\relax 5.4}{78}}
\citation{victor_rotation}
\citation{victor_rotation}
\@writefile{toc}{\contentsline {subsection}{\numberline {5.1.1}\Ca  {48} source}{79}}
\newlabel{sec:det_ca_source}{{5.1.1}{79}}
\@writefile{toc}{\contentsline {subsubsection}{Rotation of the \Ca  {48} source from the nominal position}{79}}
\@writefile{lof}{\contentsline {figure}{\numberline {\relax 5.5}{\ignorespaces Structure of the \CaF2   source discs.}}{80}}
\newlabel{fig:disc_sketch}{{\relax 5.5}{80}}
\@writefile{lof}{\contentsline {figure}{\numberline {\relax 5.6}{\ignorespaces Photograph of the \Ca  {48} source.}}{80}}
\newlabel{fig:source_photo}{{\relax 5.6}{80}}
\newlabel{fig:victor_rotation}{{\relax 5.7a}{81}}
\newlabel{sub@fig:victor_rotation}{{(a)}{a}}
\newlabel{fig:cu_rot}{{\relax 5.7b}{81}}
\newlabel{sub@fig:cu_rot}{{(b)}{b}}
\@writefile{lof}{\contentsline {figure}{\numberline {\relax 5.7}{\ignorespaces Rotated source foil strips.}}{81}}
\@writefile{lof}{\contentsline {subfigure}{\numberline{(a)}{\ignorespaces {}}}{81}}
\@writefile{lof}{\contentsline {subfigure}{\numberline{(b)}{\ignorespaces {}}}{81}}
\@writefile{toc}{\contentsline {section}{\numberline {5.2}Tracker}{81}}
\@writefile{lof}{\contentsline {figure}{\numberline {\relax 5.8}{\ignorespaces Plan view of the tracker in one NEMO-3 sector.}}{82}}
\newlabel{fig:sector_tracker}{{\relax 5.8}{82}}
\@writefile{toc}{\contentsline {section}{\numberline {5.3}Calorimeter}{84}}
\@writefile{lof}{\contentsline {figure}{\numberline {\relax 5.9}{\ignorespaces Schematic drawing of a NEMO-3 calorimeter module.}}{84}}
\newlabel{fig:calo_block}{{\relax 5.9}{84}}
\@writefile{toc}{\contentsline {section}{\numberline {5.4}Electronics, DAQ and trigger}{85}}
\@writefile{toc}{\contentsline {subsection}{\numberline {5.4.1}Calorimeter electronics}{86}}
\@writefile{toc}{\contentsline {subsection}{\numberline {5.4.2}Tracker electronics}{86}}
\@writefile{toc}{\contentsline {subsection}{\numberline {5.4.3}Trigger system}{87}}
\newlabel{sec:trigger}{{5.4.3}{87}}
\@writefile{toc}{\contentsline {section}{\numberline {5.5}Energy and time calibration}{88}}
\@writefile{toc}{\contentsline {subsection}{\numberline {5.5.1}Radioactive sources}{88}}
\newlabel{sec:det_rad_calib}{{5.5.1}{88}}
\@writefile{toc}{\contentsline {subsection}{\numberline {5.5.2}Laser calibration system}{89}}
\citation{Schmidt:2013gdc}
\@writefile{toc}{\contentsline {section}{\numberline {5.6}Magnetic field}{90}}
\@writefile{toc}{\contentsline {section}{\numberline {5.7}Passive shielding}{90}}
\@writefile{toc}{\contentsline {section}{\numberline {5.8}Anti-radon facility}{90}}
\newlabel{sec:antirad}{{5.8}{90}}
\citation{Argyriades:2009vq}
\@setckpt{chapters/nemo-3-detector/chapter.nemo-3-detector}{
\setcounter{page}{92}
\setcounter{equation}{0}
\setcounter{enumi}{0}
\setcounter{enumii}{0}
\setcounter{enumiii}{0}
\setcounter{enumiv}{0}
\setcounter{footnote}{1}
\setcounter{mpfootnote}{0}
\setcounter{part}{1}
\setcounter{chapter}{5}
\setcounter{section}{8}
\setcounter{subsection}{0}
\setcounter{subsubsection}{0}
\setcounter{paragraph}{0}
\setcounter{subparagraph}{0}
\setcounter{figure}{9}
\setcounter{table}{0}
\setcounter{cp@cntr}{0}
\setcounter{parentequation}{0}
\setcounter{r@tfl@t}{0}
\setcounter{ContinuedFloat}{0}
\setcounter{fmfgraph}{1}
\setcounter{KVtest}{1}
\setcounter{subfigure}{0}
\setcounter{subfigure@save}{2}
\setcounter{lofdepth}{1}
\setcounter{subtable}{0}
\setcounter{subtable@save}{0}
\setcounter{lotdepth}{2}
\setcounter{pp@next@reset}{0}
\setcounter{iterlist}{0}
}
