\relax 
\@writefile{toc}{\contentsline {chapter}{\numberline {9}The SuperNEMO experiment}{165}}
\@writefile{lof}{\addvspace {10\p@ }}
\@writefile{lot}{\addvspace {10\p@ }}
\newlabel{sec:sn-det}{{9}{165}}
\@writefile{lot}{\contentsline {table}{\numberline {\relax 9.1}{\ignorespaces Experimental parameters and $0\nu \beta \beta $ sensitivity for the SuperNEMO experiment and its Demonstrator module.}}{166}}
\newlabel{table:sn-specs}{{\relax 9.1}{166}}
\@writefile{toc}{\contentsline {section}{\numberline {9.1}The Demonstrator module}{166}}
\newlabel{sec:sn-demo}{{9.1}{166}}
\@writefile{lof}{\contentsline {figure}{\numberline {\relax 9.1}{\ignorespaces Exploded view drawing of the SuperNEMO Demonstrator module.}}{167}}
\newlabel{fig:demo-explo}{{\relax 9.1}{167}}
\citation{bipo}
\@writefile{lof}{\contentsline {figure}{\numberline {\relax 9.2}{\ignorespaces Construction of the SuperNEMO main wall calorimeter modules.}}{168}}
\newlabel{fig:main-wall-calo}{{\relax 9.2}{168}}
\@writefile{toc}{\contentsline {section}{\numberline {9.2}Research and development}{168}}
\newlabel{sec:sn-rd}{{9.2}{168}}
\@writefile{toc}{\contentsline {subsubsection}{Source}{168}}
\@writefile{toc}{\contentsline {subsubsection}{Calibration systems}{169}}
\@writefile{toc}{\contentsline {subsubsection}{Calorimeter}{169}}
\citation{rnDiffusion}
\@writefile{toc}{\contentsline {subsubsection}{Radon emanation}{170}}
\@writefile{toc}{\contentsline {subsubsection}{Tracker}{170}}
\citation{motty}
\citation{motty}
\@writefile{toc}{\contentsline {section}{\numberline {9.3}Timescale and sensitivity}{171}}
\newlabel{sec:sn-timescale}{{9.3}{171}}
\@writefile{lof}{\contentsline {figure}{\numberline {\relax 9.3}{\ignorespaces Sensitivity of the SuperNEMO experiment as a function of exposure.}}{172}}
\newlabel{fig:sn-sens}{{\relax 9.3}{172}}
\@setckpt{chapters/supernemo-detector/chapter.supernemo-detector}{
\setcounter{page}{173}
\setcounter{equation}{0}
\setcounter{enumi}{0}
\setcounter{enumii}{0}
\setcounter{enumiii}{0}
\setcounter{enumiv}{0}
\setcounter{footnote}{0}
\setcounter{mpfootnote}{0}
\setcounter{part}{2}
\setcounter{chapter}{9}
\setcounter{section}{3}
\setcounter{subsection}{0}
\setcounter{subsubsection}{0}
\setcounter{paragraph}{0}
\setcounter{subparagraph}{0}
\setcounter{figure}{3}
\setcounter{table}{1}
\setcounter{cp@cntr}{0}
\setcounter{parentequation}{0}
\setcounter{r@tfl@t}{0}
\setcounter{ContinuedFloat}{0}
\setcounter{fmfgraph}{1}
\setcounter{KVtest}{1}
\setcounter{subfigure}{0}
\setcounter{subfigure@save}{2}
\setcounter{lofdepth}{1}
\setcounter{subtable}{0}
\setcounter{subtable@save}{0}
\setcounter{lotdepth}{2}
\setcounter{pp@next@reset}{0}
\setcounter{iterlist}{0}
}
