\relax 
\@writefile{toc}{\contentsline {chapter}{\numberline {11}Electronics for surface commissioning}{187}}
\@writefile{lof}{\addvspace {10\p@ }}
\@writefile{lot}{\addvspace {10\p@ }}
\newlabel{sec:ch-elec}{{11}{187}}
\citation{Adamson2006119}
\@writefile{toc}{\contentsline {section}{\numberline {11.1}HV supply and distribution}{188}}
\@writefile{lof}{\contentsline {figure}{\numberline {\relax 11.1}{\ignorespaces Schematic diagram of the tracker commissioning electronics.}}{189}}
\newlabel{fig:comm-elec-sketch}{{\relax 11.1}{189}}
\@writefile{lof}{\contentsline {figure}{\numberline {\relax 11.2}{\ignorespaces The NEMO-3 HV distribution and decoupling system.}}{190}}
\newlabel{fig:hv-sketch}{{\relax 11.2}{190}}
\citation{samer}
\@writefile{toc}{\contentsline {section}{\numberline {11.2}Cosmic ray trigger}{191}}
\@writefile{toc}{\contentsline {section}{\numberline {11.3}DAQ cards}{192}}
\newlabel{sec:sn_n3_elec}{{11.3}{192}}
\@writefile{lof}{\contentsline {figure}{\numberline {\relax 11.3}{\ignorespaces Timing diagram for the tracker commissioning DAQ system.}}{193}}
\newlabel{fig:timing}{{\relax 11.3}{193}}
\@writefile{toc}{\contentsline {section}{\numberline {11.4}VME controller and read-out cycle}{195}}
\citation{mine-comm-elec}
\@writefile{toc}{\contentsline {subsection}{\numberline {11.4.1}Read-out cycle duration and dead time}{196}}
\newlabel{fig:time-vs-ncards}{{\relax 11.4a}{196}}
\newlabel{sub@fig:time-vs-ncards}{{(a)}{a}}
\newlabel{fig:read-out-rate}{{\relax 11.4b}{196}}
\newlabel{sub@fig:read-out-rate}{{(b)}{b}}
\@writefile{lof}{\contentsline {figure}{\numberline {\relax 11.4}{\ignorespaces Read-out dead time and rate of the tracker commissioning DAQ system.}}{196}}
\@writefile{lof}{\contentsline {subfigure}{\numberline{(a)}{\ignorespaces {Read-out time}}}{196}}
\@writefile{lof}{\contentsline {subfigure}{\numberline{(b)}{\ignorespaces {$\Delta t$ between consecutive read-out cycles}}}{196}}
\@writefile{lof}{\contentsline {figure}{\numberline {\relax 11.5}{\ignorespaces Photograph of the electronics and cosmic ray trigger at the University of Manchester}}{197}}
\newlabel{fig:manchester-setup-photo}{{\relax 11.5}{197}}
\@writefile{lof}{\contentsline {subfigure}{\numberline{(a)}{\ignorespaces {}}}{197}}
\@writefile{lof}{\contentsline {subfigure}{\numberline{(b)}{\ignorespaces {}}}{197}}
\@writefile{toc}{\contentsline {section}{\numberline {11.5}Testing the tracker commissioning DAQ system on the cassette test tank}{198}}
\@writefile{toc}{\contentsline {subsubsection}{$x$-axis scan}{199}}
\@writefile{lof}{\contentsline {figure}{\numberline {\relax 11.6}{\ignorespaces Sketch of a cassette in the test tank.}}{199}}
\newlabel{fig:manchester-x-scan}{{\relax 11.6}{199}}
\@writefile{toc}{\contentsline {subsubsection}{Geiger plateau scan}{199}}
\@writefile{lof}{\contentsline {figure}{\numberline {\relax 11.7}{\ignorespaces Results of the $x$-axis scan of the cassette.}}{200}}
\newlabel{fig:x-scan-results}{{\relax 11.7}{200}}
\@writefile{lof}{\contentsline {subfigure}{\numberline{(a)}{\ignorespaces {Position $A$}}}{200}}
\@writefile{lof}{\contentsline {subfigure}{\numberline{(b)}{\ignorespaces {Position $B$}}}{200}}
\@writefile{lof}{\contentsline {subfigure}{\numberline{(c)}{\ignorespaces {Position $C$}}}{200}}
\@writefile{lof}{\contentsline {subfigure}{\numberline{(d)}{\ignorespaces {Position $D$}}}{200}}
\citation{manchester-data}
\citation{manchester-data}
\citation{manchester-data}
\@writefile{toc}{\contentsline {subsubsection}{Cathode ring read-out}{201}}
\newlabel{fig:comm-plateau-scan}{{\relax 11.8a}{202}}
\newlabel{sub@fig:comm-plateau-scan}{{(a)}{a}}
\newlabel{fig:manchester-plateau-scan}{{\relax 11.8b}{202}}
\newlabel{sub@fig:manchester-plateau-scan}{{(b)}{b}}
\@writefile{lof}{\contentsline {figure}{\numberline {\relax 11.8}{\ignorespaces Scan of the Geiger plateau.}}{202}}
\newlabel{fig:plateau-scan}{{\relax 11.8}{202}}
\@writefile{lof}{\contentsline {subfigure}{\numberline{(a)}{\ignorespaces {Commissioning DAQ}}}{202}}
\@writefile{lof}{\contentsline {subfigure}{\numberline{(b)}{\ignorespaces {Cassette testing DAQ\cite {manchester-data}}}}{202}}
\@writefile{lof}{\contentsline {figure}{\numberline {\relax 11.9}{\ignorespaces Efficiency of the avalanche propagation of six cells in a cassette.}}{203}}
\newlabel{fig:manchester-cath-eff}{{\relax 11.9}{203}}
\@writefile{lof}{\contentsline {figure}{\numberline {\relax 11.10}{\ignorespaces Distribution of the propagation time to the read out cathode ring for six cells in a cassette.}}{204}}
\newlabel{fig:manchester-prop-t}{{\relax 11.10}{204}}
\@writefile{toc}{\contentsline {subsubsection}{Discussion of results}{204}}
\@setckpt{chapters/supernemo-elec/chapter.supernemo-elec}{
\setcounter{page}{205}
\setcounter{equation}{0}
\setcounter{enumi}{0}
\setcounter{enumii}{0}
\setcounter{enumiii}{0}
\setcounter{enumiv}{0}
\setcounter{footnote}{1}
\setcounter{mpfootnote}{0}
\setcounter{part}{2}
\setcounter{chapter}{11}
\setcounter{section}{5}
\setcounter{subsection}{0}
\setcounter{subsubsection}{0}
\setcounter{paragraph}{0}
\setcounter{subparagraph}{0}
\setcounter{figure}{10}
\setcounter{table}{0}
\setcounter{cp@cntr}{0}
\setcounter{parentequation}{0}
\setcounter{r@tfl@t}{0}
\setcounter{ContinuedFloat}{0}
\setcounter{fmfgraph}{1}
\setcounter{KVtest}{1}
\setcounter{subfigure}{0}
\setcounter{subfigure@save}{2}
\setcounter{lofdepth}{1}
\setcounter{subtable}{0}
\setcounter{subtable@save}{0}
\setcounter{lotdepth}{2}
\setcounter{pp@next@reset}{0}
\setcounter{iterlist}{0}
}
