\relax 
\citation{KlapdorKleingrothaus:2004wj}
\citation{Aalseth:2002dt}
\citation{kamland-zen,PhysRevLett.109.032505,Agostini:2013mzu}
\citation{0034-4885-75-10-106301}
\citation{RevModPhys.80.481}
\@writefile{toc}{\contentsline {chapter}{\numberline {4}Double-$\beta $ decay experiments and techniques}{61}}
\@writefile{lof}{\addvspace {10\p@ }}
\@writefile{lot}{\addvspace {10\p@ }}
\newlabel{sec:dbd-exp}{{4}{61}}
\newlabel{eq:generic-sens}{{\relax 4.1}{61}}
\citation{BarnabéHeider2012141,Shirai201328,Gomez-Cadenas:2013lta}
\citation{Biller:2013wua}
\citation{Rodejohann:2012xd}
\citation{Rodejohann:2012xd}
\@writefile{lot}{\contentsline {table}{\numberline {\relax 4.1}{\ignorespaces $Q_{\beta \beta }$ and natural abundances for isotopes commonly considered for double-$\beta $ decay experiments.}}{63}}
\newlabel{tab:isotope-q-abundance}{{\relax 4.1}{63}}
\citation{KlapdorKleingrothaus:2000sn}
\citation{igex}
\@writefile{toc}{\contentsline {section}{\numberline {4.1}Detector technologies}{65}}
\newlabel{sec:dbd-det-tech}{{4.1}{65}}
\@writefile{toc}{\contentsline {subsection}{\numberline {4.1.1}Semiconductor experiments}{65}}
\citation{Agostini:2012nm}
\citation{Knöpfle201331}
\citation{Abgrall:2013rze}
\citation{BarnabéHeider2012141}
\citation{Wilson2011313}
\citation{Andreotti:2010vj}
\citation{1742-6596-447-1-012066}
\citation{kamland-zen}
\citation{Shirai201328}
\citation{Wilson:2013iop}
\@writefile{toc}{\contentsline {subsection}{\numberline {4.1.2}Bolometer experiments}{67}}
\@writefile{toc}{\contentsline {subsection}{\numberline {4.1.3}Scintillator experiments}{67}}
\citation{Albert:2013gpz}
\citation{exo-ton}
\citation{Gomez-Cadenas:2013lta}
\@writefile{toc}{\contentsline {subsection}{\numberline {4.1.4}Time projection chamber experiments}{68}}
\citation{Arnold:2013dha}
\citation{PhysRev.146.810}
\@writefile{toc}{\contentsline {subsection}{\numberline {4.1.5}Tracker and calorimeter experiments}{69}}
\@writefile{toc}{\contentsline {section}{\numberline {4.2}Experiments with \Ca  {48}}{69}}
\newlabel{sec:dbd-ca-48-exp}{{4.2}{69}}
\citation{You199153}
\citation{PhysRevLett.77.5186}
\citation{Brudanin200063}
\@writefile{toc}{\contentsline {subsubsection}{Mateosian-Goldhaber experiment}{70}}
\@writefile{toc}{\contentsline {subsubsection}{Beijing experiment}{70}}
\@writefile{toc}{\contentsline {subsubsection}{Hoover Dam experiment}{70}}
\@writefile{toc}{\contentsline {subsubsection}{TGV}{70}}
\citation{PhysRevC.78.058501}
\citation{Brudanin200063}
\citation{PhysRevLett.77.5186}
\citation{Agostini:2012nm}
\citation{Argyriades:2009ph}
\citation{Arnold:2005rz}
\citation{Arnold:2005rz}
\citation{1742-6596-375-4-042011}
\citation{Arnold:2011gq}
\citation{Albert:2013gpz}
\citation{Argyriades:2008pr}
\citation{PhysRevC.78.058501}
\citation{Agostini:2013mzu}
\citation{motty}
\citation{Arnold:2013dha}
\citation{Argyriades:2009ph}
\citation{PhysRevC.68.035501}
\citation{Andreotti:2010vj}
\citation{kamland-zen}
\citation{Argyriades:2008pr}
\@writefile{toc}{\contentsline {subsubsection}{ELEGANT VI}{71}}
\@writefile{toc}{\contentsline {subsubsection}{CANDLES}{71}}
\@writefile{toc}{\contentsline {section}{\numberline {4.3}Current status of double-$\beta $ decay measurements}{71}}
\newlabel{sec:dbd-results-summary}{{4.3}{71}}
\@writefile{lot}{\contentsline {table}{\numberline {\relax 4.2}{\ignorespaces Most precise direct measurements of \2nu  .}}{72}}
\newlabel{tab:2nu-best-meas}{{\relax 4.2}{72}}
\@writefile{lot}{\contentsline {table}{\numberline {\relax 4.3}{\ignorespaces Best limits on the \0nu   half-life of the isotopes for which \2nu   has been directly observed.}}{72}}
\newlabel{tab:0nu-best-meas}{{\relax 4.3}{72}}
\@setckpt{chapters/double-beta-decay-exp/chapter.double-beta-decay-exp}{
\setcounter{page}{73}
\setcounter{equation}{1}
\setcounter{enumi}{0}
\setcounter{enumii}{0}
\setcounter{enumiii}{0}
\setcounter{enumiv}{0}
\setcounter{footnote}{1}
\setcounter{mpfootnote}{0}
\setcounter{part}{0}
\setcounter{chapter}{4}
\setcounter{section}{3}
\setcounter{subsection}{0}
\setcounter{subsubsection}{0}
\setcounter{paragraph}{0}
\setcounter{subparagraph}{0}
\setcounter{figure}{0}
\setcounter{table}{3}
\setcounter{cp@cntr}{0}
\setcounter{parentequation}{0}
\setcounter{r@tfl@t}{0}
\setcounter{ContinuedFloat}{0}
\setcounter{fmfgraph}{1}
\setcounter{KVtest}{1}
\setcounter{subfigure}{0}
\setcounter{subfigure@save}{4}
\setcounter{lofdepth}{1}
\setcounter{subtable}{0}
\setcounter{subtable@save}{0}
\setcounter{lotdepth}{2}
\setcounter{pp@next@reset}{0}
\setcounter{iterlist}{0}
}
